Name,BirthDate,Age,Sex,Equipment,Division,BodyweightKg,WeightClassKg,Squat1Kg,Squat2Kg,Squat3Kg,Squat4Kg,Best3SquatKg,Bench1Kg,Bench2Kg,Bench3Kg,Bench4Kg,Best3BenchKg,Deadlift1Kg,Deadlift2Kg,Deadlift3Kg,Deadlift4Kg,Best3DeadliftKg,TotalKg,Place,Tested,Event
Aaron Huff,,24,M,Multi-ply,M_OEM_APF,97,100,335,-350,350,,350,102.5,-197.5,197.5,,197.5,275,287.5,-297.5,,287.5,835,1,,SBD
Aaron Lundgard,,44,M,Wraps,M_MCR_1_APF,109,110,272.5,290,305,,305,182.5,200,205,,205,260,282.5,-290,,282.5,792.5,1,,SBD
Aaron Lundgard,,44,M,Wraps,M_OCR_APF,109,110,272.5,290,305,,305,182.5,200,205,,205,260,282.5,-290,,282.5,792.5,3,,SBD
Adam Stiverson,,42,M,Raw,M_MR_1_APF,127.7,140,,,,,,202.5,-217.5,,,202.5,272.5,-295,-295,,272.5,475,1,,BD
Adam Zevchik,,24,M,Multi-ply,M_OEM_APF,75,75,302.5,347.5,365,,365,60,192.5,-220,,192.5,240,267.5,-272.5,,267.5,825,2,,SBD
Aggie Rychtarczyk,,18,F,Wraps,F_TCR_3_APF,70.4,75,110,117.5,120,,120,60,-65,65,,65,110,117.5,-120,,117.5,302.5,1,,SBD
Alex Kovatch,,20,M,Multi-ply,M_OEM_APF,74.9,75,350,-385,410,,410,92.5,-202.5,202.5,,202.5,142.5,227.5,252.5,,252.5,865,1,,SBD
Alex Ortiz,,49,M,Multi-ply,M_MEM_2_APF,108.8,110,340,365,370,,370,257.5,272.5,282.5,293,282.5,222.5,252.5,-272.5,,252.5,905,1,,SBD
Alexander Matis,,24,M,Wraps,M_OCR_APF,98.9,100,200,215,-235,,215,135,147.5,-155,,147.5,205,-227.5,235,,235,597.5,4,,SBD
Alexis Ortiz,,20,F,Single-ply,F_OES_APF,87.7,90,250,-262.5,-262.5,,250,-105,105,-110,,105,165,175,-182.5,,175,530,1,,SBD
Allen Pilley,,37,M,Multi-ply,M_OEM_APF,122.2,125,447.5,482.5,500,,500,285,-320,-320,,285,307.5,-330,-335,,307.5,1092.5,2,,SBD
Amy Kozle,,46,F,Multi-ply,F_MEM_2_APF,61.9,67.5,197.5,212.5,222.5,,222.5,110,120,-127.5,,120,197.5,210,215,,215,557.5,1,,SBD
Amy Kozle,,46,F,Multi-ply,F_OEM_APF,61.9,67.5,197.5,212.5,222.5,,222.5,110,120,-127.5,,120,197.5,210,215,,215,557.5,2,,SBD
Amy Lindsay,,46,F,Raw,F_MR_2_APF,89.1,90,,,,,,65,70,72.5,,72.5,,,,,,72.5,1,,B
Amy Stokes,1981-04-10,38,F,Wraps,F_SCR_APF,72.2,75,125,132.5,140,,140,50,-55,57.5,,57.5,130,137.5,147.5,,147.5,345,1,,SBD
Angelo Buono,,28,M,Multi-ply,M_OEM_APF,124.7,125,352.5,372.5,385,,385,-265,-265,-265,,,,,,,,,DQ,,SBD
Ann Kuipers,,45,F,Raw,F_MR_2_APF,88.2,90,97.5,105,110,,110,65,-75,75,,75,115,122.5,130,,130,315,2,,SBD
Anthony Celini,,32,M,Raw,M_OR_APF,74.3,75,190,202.5,207.5,,207.5,135,-145,145,,145,242.5,252.5,260,,260,612.5,1,,SBD
Anthony Oliveira,,33,M,Multi-ply,M_OEM_APF,119,125,470,502.5,-520,,502.5,275,282.5,-292.5,,282.5,317.5,332.5,350,,350,1135,1,,SBD
Anthony Petrino,,60,M,Multi-ply,M_MEM_5_APF,124.6,125,342.5,365,-387.5,,365,295,-320,-320,,295,227.5,250,-272.5,,250,910,1,,SBD
April Draher,,41,F,Wraps,F_MCR_1_APF,66.8,67.5,125,135,140,,140,102.5,107.5,112.5,,112.5,185,197.5,200,,200,452.5,1,,SBD
April Draher,,41,F,Wraps,F_OCR_APF,66.8,67.5,125,135,140,,140,102.5,107.5,112.5,,112.5,185,197.5,200,,200,452.5,1,,SBD
Archie Leatherman,,51,M,Wraps,M_MCR_3_APF,108.4,110,180,200,212.5,,212.5,140,145,-150,,145,207.5,225,237.5,,237.5,595,1,,SBD
Autumn Elliott,,45,F,Raw,F_MR_2_APF,101.4,90+,,,,,,60,65,70,,70,,,,,,70,1,,B
Belinda Clary,,44,F,Multi-ply,F_MEM_1_APF,67,67.5,220,-230,230,,230,120,130,-138,,130,170,185,-190,,185,545,1,,SBD
Belinda Clary,,44,F,Multi-ply,F_OEM_APF,67,67.5,220,-230,230,,230,120,130,-138,,130,170,185,-190,,185,545,3,,SBD
Ben Mata,,64,M,Raw,M_MR_5_APF,120.6,125,,,,,,147.5,162.5,-165,,162.5,,,,,,162.5,1,,B
Ben Pauli,,32,M,Wraps,M_OCR_APF,109.2,110,302.5,325,337.5,,337.5,177.5,-190,,,177.5,325,-347.5,,,325,840,2,,SBD
Bill Taylor,,51,M,Single-ply,M_MES_3_APF,132.7,140,,,,,,237.5,-260,-260,,237.5,,,,,,237.5,1,,B
Billy Beard,,40,M,Raw,M_MR_1_APF,87.9,90,,,,,,,,,,,277.5,-289,-289,,277.5,277.5,1,,D
Bob Seeber,,55,M,Single-ply,M_MES_4_APF,101.6,110,260,272.5,-282.5,,272.5,-165,165,-182.5,,165,250,262.5,,,262.5,700,1,,SBD
Brandon Burd,,28,M,Raw,M_OR_APF,67.4,67.5,140,145,-150,,145,107.5,-115,-115,,107.5,180,-187.5,-187.5,,180,432.5,1,,SBD
Brandon Helle,,24,M,Wraps,M_OCR_APF,109.3,110,262.5,-275,277.5,,277.5,145,155,160,,160,235,245,-255,,245,682.5,4,,SBD
Brian Erickson,,48,M,Multi-ply,M_MEM_2_APF,106.6,110,-320,,,,,,,,,,,,,,,,DQ,,SBD
Brian Hill,,31,M,Multi-ply,M_OEM_APF,109.5,110,470,502.5,,,502.5,265,287.5,-307.5,,287.5,320,347.5,-365,,347.5,1137.5,1,,SBD
Brian Kipp,,48,M,Wraps,M_OCR_APF,121.4,125,235,250,262.5,,262.5,155,165,-172.5,,165,275,290,297.5,,297.5,725,2,,SBD
Brooke Minuth,,28,F,Wraps,F_OCR_APF,72.5,75,-95,95,-102.5,,95,62.5,67.5,-70,,67.5,130,137.5,-142.5,,137.5,300,2,,SBD
Bull Huber,,52,M,Single-ply,M_MES_3_APF,129.7,140,232.5,245,257.5,,257.5,120,-135,,,120,232.5,272.5,,,272.5,650,2,,SBD
Carlos Martell,,47,M,Wraps,M_MCR_2_APF,99.3,100,160,170,-182.5,,170,112.5,122.5,-132.5,,122.5,152.5,167.5,,,167.5,460,1,,SBD
Carol Krochmal,,60,F,Raw,F_MR_5_APF,42.7,44,,,,,,45,47.5,50,-52.5,50,,,,,,50,1,,B
Cathy Miller,,50,F,Raw,F_OR_APF,64.9,67.5,110,115,-120,,115,55,57.5,-60,,57.5,120,125,130,,130,302.5,1,,SBD
Chad Newbill,,46,M,Wraps,M_MCR_2_APF,123.6,125,-142.5,142.5,,,142.5,142.5,,,,142.5,225,,,,225,510,1,,SBD
Chad Robison,,31,M,Wraps,M_OCR_APF,122.2,125,242.5,265,280,,280,142.5,152.5,,,152.5,62.5,147.5,165,,165,597.5,4,,SBD
Chris Evans,,31,M,Wraps,M_OCR_APF,95.5,100,227.5,242.5,250,,250,182.5,195,197.5,,197.5,220,235,240,,240,687.5,2,,SBD
Chris Garcia,,62,M,Single-ply,M_MES_5_APF,98.4,100,220,232.5,-237.5,,232.5,32.5,,,,32.5,102.5,,,,102.5,367.5,1,,SBD
Chris Girdwood,,31,M,Multi-ply,M_OEM_APF,108.4,110,285,300,-320,,300,225,-245,-245,,225,280,295,-320,,295,820,2,,SBD
Chris Kutcha,,25,M,Multi-ply,M_OEM_APF,86.5,90,320,-337.5,337.5,,337.5,60,230,237.5,,237.5,250,275,-287.5,,275,850,2,,SBD
Christian Anto,,33,M,Wraps,M_OCR_APF,88,90,277.5,295,310,,310,162.5,172.5,177.5,,177.5,277.5,295,-310,,295,782.5,1,,SBD
Christian Fite,,35,M,Multi-ply,M_SEM_APF,95.9,100,295,320,327.5,,327.5,152.5,160,-167.5,,160,265,285,292.5,,292.5,780,1,,SBD
Claudia Knowles,,46,F,Multi-ply,F_MEM_2_APF,67.5,67.5,205,-222.5,-227.5,,205,115,-122.5,-122.5,,115,-165,165,-185,,165,485,2,,SBD
Claudia Knowles,,46,F,Multi-ply,F_OEM_APF,67.5,67.5,205,-222.5,-227.5,,205,115,-122.5,-122.5,,115,-165,165,-185,,165,485,4,,SBD
Cliff Shipley,,60,M,Wraps,M_MCR_5_APF,73.9,75,105,120,130,140,130,85,90,92.5,-95,92.5,150,175,185,195,185,407.5,1,,SBD
Cliff Shipley,,60,M,Single-ply,M_MES_5_APF,73.9,75,105,120,130,140,130,85,90,92.5,-95,92.5,150,175,185,195,185,407.5,1,,SBD
Cliff Shipley,,60,M,Single-ply,M_MES_5_APF,76,82.5,,,,,,,,,,,175,197.5,202.5,,202.5,202.5,1,,D
Cory Henry,,43,M,Raw,M_MR_1_APF,122.3,125,,,,,,227.5,235,237.5,,237.5,,,,,,237.5,1,,B
Cory Henry,,43,M,Raw,M_OR_APF,122.3,125,,,,,,227.5,235,237.5,,237.5,,,,,,237.5,1,,B
Cosette Neely,,41,F,Multi-ply,F_OEM_APF,47.6,48,192.5,-205,205,,205,-142.5,142.5,-152.5,,142.5,152.5,162.5,-170,,162.5,510,1,,SBD
Coty Anderson,,27,M,Wraps,M_OCR_APF,177.1,140+,272.5,295,,,295,220,230,237.5,-242.5,237.5,310,320,,,320,852.5,1,,SBD
Coty Anderson,,27,M,Raw,M_OR_APF,177.1,140+,272.5,295,,,295,220,230,237.5,-242.5,237.5,310,320,,,320,852.5,1,,SBD
Courtney Smith #1,,36,F,Raw,F_OR_APF,74.7,75,-107.5,-112.5,112.5,,112.5,52.5,-57.5,-60,,52.5,120,130,-137.5,,130,295,2,,SBD
Craig Hoffer,,57,M,Raw,M_MR_4_APF,193,140+,,,,,,205,212.5,227.5,,227.5,,,,,,227.5,2,,B
Dallas Bird,,31,M,Wraps,M_OCR_APF,109.5,110,292.5,305,315,,315,195,210,215,,215,295,307.5,320,,320,850,1,,SBD
Dan Zager,,67,M,Multi-ply,M_MEM_6_APF,65,67.5,135,142.5,-147.5,,142.5,62.5,67.5,72.5,,72.5,102.5,137.5,-155,,137.5,352.5,1,,SBD
Daniel Morjal,,41,M,Raw,M_MR_1_APF,156.1,140+,,,,,,272.5,282.5,-287.5,,282.5,,,,,,282.5,1,,B
Daniel Morjal,,41,M,Raw,M_OR_APF,156.1,140+,,,,,,272.5,282.5,-287.5,,282.5,,,,,,282.5,1,,B
Danielle Castillo,,31,F,Raw,F_OR_APF,73,75,125,137.5,-147.5,,137.5,55,60,65,,65,125,132.5,137.5,,137.5,340,1,,SBD
Danny Diemert,,34,M,Multi-ply,M_OEM_APF,98.1,100,-332.5,332.5,,,332.5,210,225,-235,,225,245,265,-277.5,,265,822.5,2,,SBD
Danyell Anderson,,45,F,Single-ply,F_MES_2_APF,55.2,56,,,,,,100,102.5,-105,,102.5,,,,,,102.5,1,,B
Danyell Anderson,,45,F,Single-ply,F_OES_APF,55.2,56,,,,,,100,102.5,-105,,102.5,,,,,,102.5,1,,B
David Balthazor,,56,M,Raw,M_MR_4_APF,121.7,125,,,,,,167.5,172.5,177.5,,177.5,,,,,,177.5,1,,B
David Cornelius,,20,M,Wraps,M_JCR_APF,81.4,82.5,112.5,117.5,122.5,,122.5,102.5,107.5,-115,,107.5,125,135,150,,150,380,1,,SBD
David Stensland,,34,M,Wraps,M_SCR_APF,88.9,90,245,-255,255,,255,155,-173,-173,,155,250,277.5,-295.5,,277.5,687.5,1,,SBD
David Summers,,57,M,Wraps,M_MCR_4_APF,89.1,90,192.5,212.5,-222.5,,212.5,145,157.5,-167.5,,157.5,100,,,,100,470,1,,SBD
David Zalucha,,27,M,Raw,M_OR_APF,80.8,82.5,165,172.5,-177.5,,172.5,115,120,-127.5,,120,205,220,-225,,220,512.5,1,,SBD
Davis Terry,,62,M,Multi-ply,M_MEM_5_APF,110.8,125,-320,,,,,,,,,,,,,,,,DQ,,SBD
Debbie Damminga,,57,F,Multi-ply,F_MEM_4_APF,74.1,75,250,267.5,280,,280,122.5,130,-137.5,,130,220,237.5,250,255,250,660,1,,SBD
Diane Winner,,51,F,Raw,F_MR_3_APF,105.6,90+,,,,,,85,90,92.5,97.5,92.5,135,147.5,157.5,162.5,157.5,250,1,,BD
D'Mauryon Hunter,,17,M,Wraps,M_TCR_2_APF,80.5,82.5,205,220,230,,230,115,127.5,145,,145,-205,205,-217.5,,205,580,1,,SBD
Donna Bingham,,50,F,Multi-ply,F_MEM_3_APF,81.2,82.5,-192.5,192.5,210,,210,-107.5,-107.5,-107.5,,,,,,,,,DQ,,SBD
Doug Peters,,50,M,Wraps,M_MCR_3_APF,124,125,245,262.5,-277.5,,262.5,167.5,177.5,182.5,,182.5,287.5,-305,,,287.5,732.5,1,,SBD
Eli Permesang,,15,M,Raw,M_TR_1_APF,88.6,90,142.5,155,162.5,,162.5,92.5,102.5,107.5,,107.5,182.5,200,205,,205,475,1,,SBD
Ella Hilliker,,14,F,Raw,F_TR_1_APF,57.8,60,60,65,-90,,65,35,42.5,-52.5,,42.5,60,75,95,,95,202.5,1,,SBD
Ellen Abel,,57,F,Raw,F_MR_4_APF,79.3,82.5,85,90,95,,95,70,-75,75,,75,130,132.5,137.5,,137.5,307.5,1,,SBD
Envoy Heinz Hodgson,,22,M,Raw,M_JR_APF,66,67.5,142.5,150,152.5,,152.5,110,132.5,-142.5,,132.5,165,182.5,192.5,,192.5,477.5,1,,SBD
Eric Scott,,30,M,Raw,M_OR_APF,109.5,110,,,,,,187.5,197.5,-210,,197.5,,,,,,197.5,3,,B
Erik Johnsen,,33,M,Multi-ply,M_OEM_APF,128.9,140,320,342.5,357.5,,357.5,272.5,290,302.5,,302.5,250,272.5,287.5,,287.5,947.5,2,,SBD
Erika Fuentes,,36,F,Wraps,F_SCR_APF,66.6,67.5,-147.5,147.5,157.5,,157.5,62.5,-70,-70,,62.5,135,145,152.5,,152.5,372.5,1,,SBD
Galen Scott,,57,M,Single-ply,M_MES_4_APF,108.8,110,,,,,,-265,-265,265,,265,,,,,,265,1,,B
Gary Jensen,,63,M,Raw,M_MCR_5_APF,87,90,,,,,,,,,,,150,162.5,-175,,162.5,162.5,1,,D
George Arvai,,26,M,Multi-ply,M_OEM_APF,87,90,225,247.5,260,,260,145,155,160,,160,197.5,215,-230,,215,635,4,,SBD
Gloria Summers,,48,F,Wraps,F_MCR_2_APF,55.5,56,85,92.5,102.5,,102.5,52.5,57.5,-62.5,,57.5,107.5,117.5,-120,,117.5,277.5,1,,SBD
Greg McMillian,,67,M,Multi-ply,M_MEM_6_APF,89,90,,,,,,157.5,167.5,177.5,,177.5,,,,,,177.5,1,,B
Greg Ripley,,58,M,Single-ply,M_MES_4_APF,81.2,82.5,192.5,227.5,237.5,,237.5,102.5,-167.5,-167.5,,102.5,170,197.5,215,,215,555,1,,SBD
Greg Shearer,,43,M,Raw,M_MR_1_APF,98,100,135,157.5,162.5,,162.5,115,127.5,132.5,,132.5,185,195,210,,210,505,2,,SBD
Gregg Damminga,,57,M,Multi-ply,M_MEM_4_APF,132,140,-227.5,227.5,-275,,227.5,140,220,-235,,220,272.5,292.5,-313,,292.5,740,1,,SBD
Gustavo Rodriguez,,22,M,Wraps,M_JCR_APF,87.6,90,200,-215,215,,215,130,140,-145,,140,227.5,-252.5,-252.5,,227.5,582.5,2,,SBD
Hud Ashour,,25,M,Raw,M_OR_APF,82.2,82.5,70,-107.5,107.5,,107.5,97.5,110,-120,,110,170,-182.5,-182.5,,170,387.5,2,,SBD
Hunter Norberg,,25,M,Wraps,M_OCR_APF,95,100,185,-205,-205,,185,130,142.5,150,,150,185,200,-217.5,,200,535,5,,SBD
Isaac Shaw,,21,M,Raw,M_JR_APF,85,90,175,-192.5,192.5,,192.5,122.5,-137.5,-137.5,,122.5,205,230,232.5,,232.5,547.5,1,,SBD
Isabelle Rivera,,16,F,Wraps,F_TCR_2_APF,89.3,90,142.5,152.5,162.5,-167.5,162.5,67.5,72.5,77.5,,77.5,152.5,165,177.5,,177.5,417.5,1,,SBD
Isabelle Rivera,,16,F,Raw,F_TR_2_APF,89.3,90,142.5,152.5,162.5,-167.5,162.5,67.5,72.5,77.5,,77.5,152.5,165,177.5,,177.5,417.5,1,,SBD
Jackson Rahrig,,15,M,Raw,M_TR_1_APF,52.8,56,52.5,55,-60,,55,47.5,50,52.5,,52.5,57.5,67.5,72.5,,72.5,180,1,,SBD
Jackson Rahrig,,15,M,Raw,M_SOR_APF,52.8,56,52.5,55,-60,,55,47.5,50,52.5,,52.5,57.5,67.5,72.5,,72.5,180,1,,SBD
Jagger Hoffman,,20,M,Wraps,M_JCR_APF,132.6,140,197.5,217.5,227.5,,227.5,105,117.5,125,,125,210,220,227.5,,227.5,580,1,,SBD
Jake Baker,,38,M,Wraps,M_OCR_APF,109.2,110,-180,187.5,202.5,,202.5,130,-142.5,-142.5,,130,180,205,-215,,205,537.5,5,,SBD
James Hamlin,,49,M,Raw,M_MR_2_APF,93.9,100,,,,,,110,117.5,125,,125,,,,,,125,2,,B
James Jeurink,,66,M,Multi-ply,M_MEM_6_APF,93.7,100,,,,,,,,,,,190,212.5,230,,230,230,1,,D
Janet Sink,,76,F,Raw,F_MR_8_APF,93.8,90+,,,,,,42.5,45,47.5,50,47.5,,,,,,47.5,1,,B
Jason Scott,,40,M,Raw,M_MR_1_APF,114.1,125,,,,,,142.5,150,-162.5,,150,,,,,,150,4,,B
Jay Semifero,,28,M,Wraps,M_OCR_APF,82.4,82.5,277.5,292.5,300,,300,185,197.5,201.5,,201.5,255,270,277.5,,277.5,779,1,,SBD
Jayson McNett,,38,M,Multi-ply,M_OEM_APF,151.5,140+,372.5,400,410,,410,182.5,352.5,-372.5,,352.5,272.5,282.5,,,282.5,1045,2,,SBD
Jeannie Nutter,,34,F,Multi-ply,F_OEM_APF,67,67.5,230,252.5,272.5,,272.5,-130,-130,130,,130,175,192.5,-210,,192.5,595,1,,SBD
Jeffrey Orr,,63,M,Multi-ply,M_MEM_5_APF,99,100,,,,,,-155,155,167.5,,167.5,,,,,,167.5,1,,B
Jen Potgeter,,40,F,Raw,F_MR_1_APF,77.7,82.5,135,142.5,147.5,,147.5,85,90,-92.5,,90,137.5,140,142.5,,142.5,380,1,,SBD
Jen Potgeter,,40,F,Raw,F_OR_APF,77.7,82.5,135,142.5,147.5,,147.5,85,90,-92.5,,90,137.5,140,142.5,,142.5,380,1,,SBD
Jennifer Erhardt,,24,F,Raw,F_OR_APF,86.2,90,162.5,170,177.5,,177.5,87.5,95,102.5,,102.5,165,177.5,190,,190,470,1,,SBD
Jennifer Gimmell,,37,F,Multi-ply,F_OEM_APF,85.5,90,220,250.5,255,,255,160,-172.5,172.5,,172.5,175,185,195,,195,622.5,2,,SBD
Jerry Felts,,61,M,Raw,M_MR_5_APF,80.7,82.5,,,,,,137.5,142.5,147.5,,147.5,,,,,,147.5,1,,B
Jesse Garcia,,22,M,Wraps,M_JCR_APF,108.8,110,205,227.5,-245,,227.5,-162.5,162.5,-167.5,,162.5,197.5,205,212.5,,212.5,602.5,1,,SBD
Jesse Rodriguez,,53,M,Wraps,M_MCR_3_APF,126.1,140,215,227.5,-240,,227.5,115,130,,,130,215,232.5,-240,,232.5,590,1,,SBD
Jim Galto,,45,M,Raw,M_MR_2_APF,104.9,110,205,220,-230,,220,150,160,170,,170,240,260,-275,,260,650,1,,SBD
Jim Harris,,63,M,Raw,M_MR_5_APF,78.9,82.5,165,175,-182.5,,175,130,137.5,142.5,,142.5,207.5,220,227.5,,227.5,545,1,,SBD
Joe Fargo,,40,M,Single-ply,M_MES_1_APF,99.5,100,,,,,,-320,-320,-320,,,,,,,,,DQ,,B
Joe Fargo,,40,M,Single-ply,M_OES_APF,99.5,100,,,,,,-320,-320,-320,,,,,,,,,DQ,,B
Joseph Stein,,24,M,Multi-ply,M_OEM_APF,153.8,140+,472.5,502.5,517.5,,517.5,285,295,310,,310,275,307.5,320,,320,1147.5,1,,SBD
Karon Newbill,,45,F,Raw,F_MR_2_APF,73.6,75,87.5,107.5,115,,115,62.5,70,-82.5,,70,102.5,125,-145,,125,310,1,,SBD
Kate Strong,,29,F,Wraps,F_OCR_APF,55.7,56,107.5,117.5,-122.5,,117.5,52.5,60,-62.5,,60,105,112.5,120,,120,297.5,2,,SBD
Kathleen Martini,,24,F,Raw,F_OR_APF,58.5,60,57.5,70,80,,80,42.5,-60,60,,60,97.5,110,125,,125,265,1,,SBD
Kathy Holland,,54,F,Wraps,F_MCR_3_APF,102.5,90+,60,70,75,,75,40,45,47.5,,47.5,102.5,107.5,112.5,,112.5,235,2,,SBD
Kathy Wetenhall,,65,F,Multi-ply,F_MEM_6_APF,85.2,90,,,,,,85,92.5,,,92.5,,,,,,92.5,1,,B
Kathy Wetenhall,,65,F,Single-ply,F_MES_6_APF,85.2,90,,,,,,85,92.5,,,92.5,,,,,,92.5,1,,B
Kathy Wetenhall,,65,F,Raw,F_MR_6_APF,85.2,90,,,,,,62.5,-70,,,62.5,,,,,,62.5,1,,B
Katrina Bielomyza,,39,F,Multi-ply,F_OEM_APF,89.7,90,292.5,310,327.5,,327.5,137.5,147.5,160,,160,205,-220,,,205,692.5,1,,SBD
Keith McCubbin,,37,M,Wraps,M_SCR_APF,87.8,90,155,162.5,180,,180,110,115,-120,,115,187.5,202.5,207.5,,207.5,502.5,2,,SBD
Kelli Holschuh,,28,F,Single-ply,F_OES_APF,78.5,82.5,130,152.5,167.5,,167.5,90,97.5,102.5,,102.5,112.5,127.5,137.5,,137.5,407.5,1,,SBD
Kelli Holschuh,,28,F,Single-ply,F_OES_APF,78.3,82.5,,,,,,90,95,97.5,,97.5,,,,,,97.5,1,,B
Kent Spires,,48,M,Raw,M_MR_2_APF,89,90,,,,,,210,220,227.5,,227.5,,,,,,227.5,1,,B
Kent Spires,,48,M,Raw,M_OR_APF,89,90,,,,,,210,220,227.5,,227.5,,,,,,227.5,1,,B
Kevin Ley,,15,M,Raw,M_TR_1_APF,86.5,90,102.5,125,-147.5,,125,67.5,77.5,-105,,77.5,115,122.5,-155,,122.5,325,2,,SBD
Kevin Pitman,,53,M,Single-ply,M_MES_3_APF,137.4,140,320,350,365,,365,240,250,-260,,250,275,-292.5,,,275,890,1,,SBD
Kole Carter,,57,M,Raw,M_MR_4_APF,167.6,140+,,,,,,235,245,-250,,245,,,,,,245,1,,B
Krista Ford,,52,F,Multi-ply,F_MEM_3_APF,81.9,82.5,207.5,217.5,227.5,,227.5,50,65,75,,75,180,190,195,,195,497.5,1,,SBD
Kyle Priest,,27,M,Raw,M_OR_APF,131.1,140,185,195,-210,,195,147.5,152.5,-160,,152.5,200,210,215,,215,562.5,1,,SBD
Larry Brendel,,41,M,Raw,M_MR_1_APF,108.3,110,,,,,,215,-222.5,-222.5,,215,,,,,,215,1,,B
Larry Brendel,,41,M,Raw,M_OR_APF,108.3,110,,,,,,215,-222.5,-222.5,,215,,,,,,215,2,,B
Lawrence Calabrese,,33,M,Multi-ply,M_OEM_APF,136.8,140,387.5,410,422.5,,422.5,275,292.5,302.5,,302.5,275,295,307.5,,307.5,1032.5,1,,SBD
Lee Lichtle,,74,M,Single-ply,M_MES_7_APF,85.9,90,160,-170,170,176,170,-155,155,160,163,160,175,190.5,195,,195,525,1,,SBD
Lee Lichtle,,74,M,Multi-ply,M_MEM_7_APF,86.3,90,,,,,,155,-160.5,160.5,,160.5,,,,,,160.5,1,,B
Lee Lichtle,,74,M,Single-ply,M_MES_7_APF,86.3,90,,,,,,155,-160.5,160.5,,160.5,,,,,,160.5,1,,B
Legolas Stewart,,16,M,Raw,M_TR_2_APF,65.9,67.5,-150,150,155,,155,-100,112.5,122.5,,122.5,182.5,-192.5,200,,200,477.5,1,,SBD
Lisa Jacobson,,48,F,Raw,F_MR_2_APF,70.8,75,,,,,,57.5,62.5,-65,,62.5,,,,,,62.5,1,,B
Liz Dudek,,61,F,Raw,F_MR_5_APF,62.9,67.5,,,,,,65,-67.5,-67.5,,65,107.5,112.5,117.5,120,117.5,182.5,1,,BD
Lloyd Bingham,,50,M,Multi-ply,M_MEM_3_APF,98.5,100,-265,265,285,,285,107.5,137.5,-150,,137.5,217.5,235,-240,,235,657.5,1,,SBD
Logan Evans,,16,M,Single-ply,M_TES_2_APF,81.5,82.5,272.5,295,307.5,,307.5,-167.5,167.5,,,167.5,265,272.5,-275,,272.5,747.5,1,,SBD
Lonnie Dickinson,,49,M,Raw,M_MR_2_APF,148.8,140+,,,,,,240,255,262.5,-271,262.5,,,,,,262.5,1,,B
Lonnie Dickinson,,49,M,Raw,M_OR_APF,148.8,140+,,,,,,240,255,262.5,-271,262.5,,,,,,262.5,2,,B
Louis Loria,,57,M,Wraps,M_MCR_4_APF,136.3,140,257.5,-275,,,257.5,-167.5,,,,,,,,,,,DQ,,SBD
Lupe Coronado,,58,M,Multi-ply,M_MEM_4_APF,79.3,82.5,187.5,205,210,,210,147.5,155,-162.5,,155,185,200,210,,210,575,1,,SBD
Lynda Ward,,48,F,Raw,F_MR_2_APF,88.2,90,72.5,75,102.5,,102.5,42.5,52.5,60,,60,150,167.5,-182.5,,167.5,330,1,,SBD
Lynda Ward,,48,F,Raw,F_MR_2_APF,89.1,90,,,,,,,,,,,125,145,160,170,160,160,1,,D
Matt Schwab,,32,M,Raw,M_OR_APF,94.3,100,,,,,,185,197.5,-200,,197.5,,,,,,197.5,1,,B
Matt Tripp,,41,M,Raw,M_MR_1_APF,99.3,100,245,255,260,,260,160,172.5,182.5,,182.5,260,272.5,280,,280,722.5,1,,SBD
Matt Tripp,,41,M,Raw,M_OR_APF,99.3,100,245,255,260,,260,160,172.5,182.5,,182.5,260,272.5,280,,280,722.5,1,,SBD
Matthew Durfee,,28,M,Raw,M_OR_APF,82.1,82.5,,,,,,187.5,202.5,-218,,202.5,,,,,,202.5,1,,B
Matt Minuth,,38,M,Multi-ply,M_OEM_APF,115.2,125,480,505,522.5,,522.5,-427.5,-427.5,-427.5,,,,,,,,,DQ,,SBD
Max Reichert,,22,M,Multi-ply,M_JEM_APF,98.9,100,332.5,352.5,365,,365,230,255,-272.5,,255,255,272.5,290,,290,910,1,,SBD
Micheal Berger,,19,M,Raw,M_TR_3_APF,83.6,90,137.5,147.5,-160,,147.5,-130,-137.5,-137.5,,,,,,,,,DQ,,SBD
Micheal Bunner,,41,M,Wraps,M_MCR_1_APF,123.7,125,265,-275,-275,,265,197.5,-205,-205,,197.5,255,,,,255,717.5,1,,SBD
Micheal Bunner,,41,M,Wraps,M_OCR_APF,123.7,125,265,-275,-275,,265,197.5,-205,-205,,197.5,255,,,,255,717.5,3,,SBD
Micheal Casale,,72,M,Raw,M_MR_7_APF,58.8,60,,,,,,82.5,85,87.5,90,87.5,,,,,,87.5,1,,B
Micheal Husted,,15,M,Raw,M_TR_1_APF,78.9,82.5,70,85,-110,,85,60,72.5,-82.5,,72.5,100,122.5,150,,150,307.5,1,,SBD
Micheal Vazquez,,30,M,Wraps,M_OCR_APF,99.1,100,227.5,-235,235,,235,160,167.5,-175,,167.5,260,272.5,-280,,272.5,675,3,,SBD
Mike Leck,,51,M,Wraps,M_MCR_3_APF,108.8,110,175,190,197.5,,197.5,145,160,-167.5,,160,192.5,212.5,227.5,,227.5,585,2,,SBD
Mike Woods,,58,M,Single-ply,M_MES_4_APF,140.6,140+,185,255,272.5,,272.5,102.5,185,-200,,185,120,205,-212.5,,205,662.5,1,,SBD
Mindy Fillmore,,48,F,Wraps,F_MCR_2_APF,96.4,90+,90,-100,100,,100,60,70,72.5,,72.5,97.5,,,,97.5,270,1,,SBD
Miranda Colbert,,24,F,Wraps,F_OCR_APF,56,56,100,115,122.5,,122.5,52.5,60,-65,,60,107.5,125,137.5,,137.5,320,1,,SBD
Natalia Urzola,,28,F,Wraps,F_OCR_APF,57.8,60,102.5,-115,-122.5,,102.5,52.5,60,-62.5,,60,145,165,172.5,,172.5,335,1,,SBD
Nik Woods,,49,M,Raw,M_MR_2_APF,71,75,165,175,,,175,117.5,125,130,,130,182.5,195,205,,205,510,1,,SBD
Nora Langdon,,76,F,Single-ply,F_MES_8_APF,85.5,90,165,172.5,182.5,187.5,182.5,75,77.5,82.5,87.5,82.5,155,-165,,,155,420,1,,SBD
Norman LeFlore,,31,M,Raw,M_OR_APF,74.7,75,160,165,172.5,,172.5,122.5,127.5,-132.5,,127.5,172.5,192.5,210,,210,510,2,,SBD
Oren Anderson,,14,M,Raw,M_TR_1_APF,75.1,82.5,60,-82.5,82.5,,82.5,60,70,-80,,70,65,92.5,105,,105,257.5,2,,SBD
Rachel Frisbie,,26,F,Wraps,F_OCR_APF,83.9,90,135,140,145,,145,65,67.5,-70,,67.5,145,152.5,160,,160,372.5,1,,SBD
Randolph Pendelton,,50,M,Wraps,M_MCR_3_APF,92.5,100,160,-172.5,-172.5,,160,150,-155,-155,,150,200,205,-210,,205,515,1,,SBD
Ray Pawlak,,61,M,Single-ply,M_MES_5_APF,108.3,110,-187.5,187.5,-210,,187.5,130,147.5,152.5,,152.5,187.5,205,220,,220,560,1,,SBD
Ray Zimmerman,,60,M,Raw,M_MR_5_APF,130.8,140,140,150,160,,160,140,155,-167.5,,155,175,190,205,,205,520,1,,SBD
Rebecca Anthony,,44,F,Raw,F_MR_1_APF,113.6,90+,100,105,112.5,,112.5,55,-62.5,62.5,,62.5,122.5,132.5,145,,145,320,1,,SBD
Regan O'Dell,,66,M,Raw,M_MR_6_APF,121,125,,,,,,115,122.5,,,122.5,165,175,185,,185,307.5,1,,BD
Rheta West,,45,F,Multi-ply,F_OEM_APF,74,75,275,297.5,320,,320,155,170,182.5,185,182.5,185,202.5,-217.5,,202.5,705,1,,SBD
Rich Hodge,,43,M,Raw,M_MR_1_APF,105.2,110,,,,,,,,,,,185,195,200,,200,200,1,,D
Richard Fairchild,,24,M,Raw,M_OR_APF,128.7,140,,,,,,255,272.5,282.5,-303.5,282.5,,,,,,282.5,1,,B
Richard Spiroff,,50,M,Raw,M_MR_3_APF,108.2,110,,,,,,210,220,222.5,,222.5,,,,,,222.5,1,,B
Richard Spiroff,,50,M,Raw,M_OR_APF,108.2,110,,,,,,210,220,222.5,,222.5,,,,,,222.5,1,,B
Rick Lawrence,,54,M,Multi-ply,M_MEM_3_APF,113.8,125,,,,,,180,-195,195,,195,,,,,,195,1,,B
Rob Forell,,38,M,Multi-ply,M_OEM_APF,87.8,90,320,335,345,,345,240,250,,,250,275,285,-290,,285,880,1,,SBD
Rob Forell,,38,M,Multi-ply,M_SEM_APF,87.8,90,320,335,345,,345,240,250,,,250,275,285,-290,,285,880,1,,SBD
Rob Hensley,,51,M,Raw,M_MR_3_APF,99.2,100,,,,,,150,152.5,-157.5,,152.5,137.5,147.5,-162.5,,147.5,300,1,,BD
Robbie Fox,,27,M,Wraps,M_OCR_APF,98,100,250,272.5,-290,,272.5,160,-175,175,,175,250,262.5,-275,,262.5,710,1,,SBD
Robin Miller,,49,F,Wraps,F_MCR_2_APF,58.8,60,90,97.5,-105,,97.5,67.5,70.5,-72.5,,70.5,137.5,147.5,155.5,-156,155.5,323.5,1,,SBD
Roman Esparza,,26,M,Multi-ply,M_OEM_APF,124.9,125,312.5,-332.5,332.5,,332.5,182.5,195,-205,,195,-257.5,257.5,-272.5,,257.5,785,4,,SBD
Roxann Perkins,,14,F,Raw,F_TR_1_APF,77.5,82.5,62.5,70,77.5,,77.5,30,37.5,-47.5,,37.5,-92.5,92.5,105,,105,220,1,,SBD
Ryan Hammer,,21,M,Wraps,M_JCR_APF,89.5,90,-235,235,242.5,,242.5,152.5,160,-162.5,,160,220,232.5,240,,240,642.5,1,,SBD
Samantha Jo Ogg,,32,F,Wraps,F_OCR_APF,71.1,75,147.5,167.5,185,,185,77.5,87.5,-90,,87.5,147.5,157.5,165,,165,437.5,1,,SBD
Scott Edmiston,,56,M,Wraps,M_MCR_4_APF,126.3,140,237.5,260,275,,275,145,160,165,,165,237.5,260,-272.5,,260,700,1,,SBD
Scott Edmiston,,56,M,Wraps,M_OCR_APF,126.3,140,237.5,260,275,,275,145,160,165,,165,237.5,260,-272.5,,260,700,1,,SBD
Scott Kuderick,,45,M,Multi-ply,M_OEM_APF,89.8,90,305,-325,-337.5,,305,167.5,175,182.5,,182.5,227.5,245,-265,,245,732.5,3,,SBD
Scott Stadel,,46,M,Raw,M_MR_2_APF,119.4,125,,,,,,150,-157.5,-157.5,,150,,,,,,150,1,,B
Sharri Margraves,,56,F,Raw,F_MR_4_APF,81.3,82.5,80,87.5,95,,95,70,75,-80,,75,105,,,,105,275,2,,SBD
Shaun Davis,,47,M,Raw,M_MR_2_APF,93.3,100,,,,,,125,132.5,-137.5,,132.5,272.5,290,-295,,290,422.5,1,,BD
Shawn Bogedain,,34,M,Wraps,M_SCR_APF,99.9,100,235,245,260,,260,167.5,180,-187.5,,180,267.5,280,295,,295,735,1,,SBD
Shawn Knowles,,46,M,Multi-ply,M_MEM_2_APF,124.9,125,390,-430,,,390,142.5,-285,-305,,142.5,62.5,,,,62.5,595,1,,SBD
Shawna Smith,,41,F,Raw,F_MR_1_APF,80,82.5,,,,,,75,-80,80,,80,,,,,,80,1,,B
Sheryl Shockley,,61,F,Raw,F_MR_5_APF,79.6,82.5,82.5,90,97.5,100,97.5,47.5,50,52.5,-55.5,52.5,125,132.5,137.5,140.5,137.5,287.5,1,,SBD
Simon Hill,,15,M,Wraps,M_TCR_1_APF,108.1,110,140,155,165,,165,107.5,115,117.5,,117.5,167.5,182.5,195,-202.5,195,477.5,1,,SBD
Skyler Brandt,,19,M,Wraps,M_TCR_3_APF,155.8,140+,350,385,-410,,385,190,205,210,,210,330,350,362.5,,362.5,957.5,1,,SBD
Steve McBride,,42,M,Wraps,M_MCR_1_APF,124.2,125,175,182.5,190,,190,130,-142.5,147.5,,147.5,207.5,225,230,,230,567.5,2,,SBD
Steve Stuecher,,32,M,Wraps,M_OCR_APF,120.3,125,342.5,365,377.5,,377.5,177.5,190,-200,,190,272.5,295,-305,,295,862.5,1,,SBD
Tamela Biro,,67,F,Wraps,F_MCR_6_APF,72.3,75,55,67.5,85,,85,37.5,45,-52.5,,45,110,125,-135,,125,255,1,,SBD
Tara Duncan,,32,F,Wraps,F_OCR_APF,128.2,90+,175,192.5,205,,205,87.5,92.5,95,,95,165,170,175,,175,475,1,,SBD
Tera Kinnane,,43,F,Wraps,F_MCR_1_APF,110.9,90+,167.5,180,-192.5,,180,85,90,-100,,90,147.5,160,,,160,430,1,,SBD
Thomas Drake,,63,M,Raw,M_MR_5_APF,127.7,140,,,,,,150,-160,-160,,150,200,227.5,235,237.5,235,385,1,,BD
Thomus Bodenbender,,53,M,Multi-ply,M_MEM_3_APF,109.3,110,330,-342.5,342.5,,342.5,230,-240,-240,,230,247.5,260,-272.5,,260,832.5,1,,SBD
Tiffany Biancardi,,23,F,Wraps,F_JCR_APF,58.5,60,132.5,145,150,,150,95,100,-105,,100,135,-145,-145,,135,385,1,,SBD
Tim Sheehan,,67,M,Single-ply,M_MES_6_APF,96.6,100,215,228,,,228,135,141.5,147.5,,147.5,197.5,220.5,,,220.5,596,1,,SBD
Tina Enners,,50,F,Wraps,F_MCR_3_APF,110.2,90+,145,155,161,,161,62.5,67.5,-68,,67.5,137.5,145,151,157.5,151,379.5,1,,SBD
Toby Merrill,,41,M,Raw,M_MR_1_APF,116.7,125,,,,,,150,160,-165,,160,,,,,,160,3,,B
Toby Merrill,,41,M,Raw,M_OR_APF,116.7,125,,,,,,150,160,-165,,160,,,,,,160,2,,B
Tone Capone,,42,M,Raw,M_MR_1_APF,107.8,110,,,,,,137.5,147.5,152.5,,152.5,,,,,,152.5,2,,B
Tracey Campbell,,43,F,Wraps,F_OCR_APF,81.9,82.5,162.5,175,185,,185,105,112.5,122.5,,122.5,182.5,192.5,202.5,,202.5,510,1,,SBD
Trevion Marsh,,25,M,Wraps,M_OCR_APF,74.8,75,192.5,200,215,,215,125,132.5,-140,,132.5,192.5,207.5,220,,220,567.5,1,,SBD
Trevor Brown,,24,M,Multi-ply,M_OEM_APF,123.4,125,390,415,432.5,,432.5,295,320,-330,,320,250,277.5,292.5,,292.5,1045,3,,SBD
Trevor Hamilton,,26,M,Raw,M_OR_APF,109.5,110,297.5,320,327.5,,327.5,175,192.5,195,,195,277.5,297.5,-305,,297.5,820,1,,SBD
Victoria Nehls,,24,F,Multi-ply,F_OEM_APF,73.7,75,165,175,185,,185,82.5,95,102.5,,102.5,167.5,185,190,,190,477.5,2,,SBD
Vivienne Shockley,,38,F,Raw,F_SR_APF,81.6,82.5,55,60,65,70,65,47.5,50,52.5,,52.5,125,132.5,137.5,140.5,137.5,255,1,,SBD
Vivienne Shockley,,38,F,Raw,F_SOR_APF,81.6,82.5,55,60,65,70,65,47.5,50,52.5,,52.5,125,132.5,137.5,140.5,137.5,255,1,,SBD
William Allen #1,,72,M,Raw,M_MR_7_APF,86.9,90,,,,,,82.5,85,90,,90,150,157.5,165,,165,255,1,,BD
William Dixon,,41,M,Raw,M_MR_1_APF,173.2,140+,,,,,,182.5,200,210,,210,,,,,,210,2,,B
William Dixon,,41,M,Raw,M_OR_APF,173.2,140+,,,,,,182.5,200,210,,210,,,,,,210,3,,B
William Tolliver,,37,M,Raw,M_SR_APF,149.3,140+,,,,,,,,,,,275,295,320,,320,320,1,,D
Yousseff Bujaidar,,25,M,Raw,M_OR_APF,99.2,100,-242.5,260,-272.5,,260,145,160,-165,,160,247.5,260,277.5,,277.5,697.5,2,,SBD
Zander Manning,,17,M,Wraps,M_TCR_2_APF,65.5,67.5,-152.5,152.5,160,,160,95,102.5,-107.5,,102.5,192.5,,,,192.5,455,1,,SBD
