Name,Age,Sex,Division,Equipment,BodyweightKg,WeightClassKg,Squat1Kg,Squat2Kg,Squat3Kg,Best3SquatKg,Squat4Kg,Bench1Kg,Bench2Kg,Bench3Kg,Bench4Kg,Best3BenchKg,Deadlift1Kg,Deadlift2Kg,Deadlift3Kg,Deadlift4Kg,Best3DeadliftKg,TotalKg,Place,Country,Event
Olena Yarova,42,F,F_MR_1_APF,Raw,66.4,67.5,,,,,,60,65,70,,70,,,,,,70,1,Ukraine,B
Piroska H Balogh,41,F,F_MR_1_APF,Raw,68.2,75,,,,,,110,120,125,,125,,,,,,125,1,Hungary,B
Svetlana Sinacheva,45,F,F_MR_2_APF,Raw,73.4,75,,,,,,100,107.5,110,,110,,,,,,110,1,Russia,B
Svetlana Odintsova,46,F,F_MR_2_APF,Raw,75.2,82.5,,,,,,,,,,,,,,,,,DQ,Russia,B
Lolita Maurer,53,F,F_MR_3_APF,Raw,65.2,67.5,,,,,,90,95,97.5,100,97.5,,,,,,97.5,1,Germany,B
Hanne Bingle,53,F,F_MR_3_APF,Raw,78.6,82.5,,,,,,80,95,-102.5,,95,,,,,,95,1,UK,B
Janet Sink,69,F,F_MR_6_APF,Raw,84.2,90,,,,,,37.5,40,42.5,,42.5,,,,,,42.5,1,USA,B
Hella Schuster,77,F,F_MR_8_APF,Raw,69.4,75,,,,,,45,47.5,50,-52.5,50,,,,,,50,1,Germany,B
Leslie Watson,,F,F_OR_APF,Raw,43.8,44,,,,,,57.5,60,62.5,,62.5,,,,,,62.5,1,UK,B
Andrea Kovács,36,F,F_OR_APF,Raw,49.8,52,,,,,,50,52.5,-55,,52.5,,,,,,52.5,1,Hungary,B
Szilvia Kaiser,30,F,F_OR_APF,Raw,51.2,52,,,,,,42.5,47.5,-50,,47.5,,,,,,47.5,2,Hungary,B
Anna Gromova,24,F,F_OR_APF,Raw,51,52,,,,,,40,42.5,45,,45,,,,,,45,3,Russia,B
Anna Konoval,29,F,F_OR_APF,Raw,55.8,56,,,,,,80,-85,-87.5,,80,,,,,,80,1,Ukraine,B
Svetlana Klepikova,24,F,F_OR_APF,Raw,59.4,60,,,,,,87.5,92.5,95,,95,,,,,,95,1,Russia,B
Maryana Naumova,13,F,F_OR_APF,Raw,56.4,60,,,,,,85,87.5,90,,90,,,,,,90,2,Russia,B
Martina Namešpetrova,28,F,F_OR_APF,Raw,60,60,,,,,,80,85,90,,90,,,,,,90,3,Slovakia,B
Olga Knyazeva,,F,F_OR_APF,Raw,57.2,60,,,,,,55,60,-65,,60,,,,,,60,4,Russia,B
Rita Nagy,38,F,F_OR_APF,Raw,66.8,67.5,,,,,,100,105,110,112.5,110,,,,,,110,1,Hungary,B
Lolita Maurer,53,F,F_OR_APF,Raw,65.2,67.5,,,,,,90,95,97.5,100,97.5,,,,,,97.5,2,Germany,B
Tracy Draher,37,F,F_OR_APF,Raw,73.8,75,,,,,,102.5,-105,-105,,102.5,,,,,,102.5,1,USA,B
Anna Turaeva,34,F,F_OR_APF,Raw,81,82.5,,,,,,120,130,140,,140,,,,,,140,1,Russia,B
Hanne Bingle,53,F,F_OR_APF,Raw,78.6,82.5,,,,,,80,95,-102.5,,95,,,,,,95,2,UK,B
Anna Khudayarov,24,F,F_OR_APF,Raw,83.8,90,,,,,,105,115,120,,120,,,,,,120,1,Finland,B
Ana McCloskey,19,F,F_OR_APF,Raw,88,90,,,,,,80,87.5,-92.5,,87.5,,,,,,87.5,2,USA,B
Cindy Costin-Fury,29,F,F_OR_APF,Raw,86.8,90,,,,,,60,65,67.5,,67.5,,,,,,67.5,3,Canada,B
Kristy Reske,35,F,F_OR_APF,Raw,120.4,90+,,,,,,115,130,135,140,135,,,,,,135,1,USA,B
Maryana Naumova,13,F,F_TR_1_APF,Raw,56.4,60,,,,,,85,87.5,90,,90,,,,,,90,1,Russia,B
Ana McCloskey,19,F,F_TR_3_APF,Raw,88,90,,,,,,80,87.5,-92.5,,87.5,,,,,,87.5,1,USA,B
Nadezda Samoylenko,11,F,F_YR_APF,Raw,46.4,48,,,,,,25,27.5,30,,30,,,,,,30,1,Russia,B
Stanislav Khaitov,22,M,M_JR_APF,Raw,66.4,67.5,,,,,,140,150,-155,,150,,,,,,150,1,Ukraine,B
David Csizmadia,21,M,M_JR_APF,Raw,74,75,,,,,,160,167.5,172.5,,172.5,,,,,,172.5,1,Hungary,B
Fábio Brás,21,M,M_JR_APF,Raw,69.4,75,,,,,,125,130,135,,135,,,,,,135,2,Portugal,B
Yerlan Alkeyev,23,M,M_JR_APF,Raw,81.2,82.5,,,,,,-190,-190,190,,190,,,,,,190,1,Kazakhstan,B
Gerrit Scheel,21,M,M_JR_APF,Raw,76.8,82.5,,,,,,147.5,-155,-155,,147.5,,,,,,147.5,2,Germany,B
Ákos Oláh,23,M,M_JR_APF,Raw,95.4,100,,,,,,205,212.5,-216,,212.5,,,,,,212.5,1,Hungary,B
Jordan Williamson,22,M,M_JR_APF,Raw,95.6,100,,,,,,182.5,-192.5,192.5,,192.5,,,,,,192.5,2,Canada,B
Chad Thum,20,M,M_JR_APF,Raw,106,110,,,,,,-202.5,-202.5,-202.5,,,,,,,,,DQ,USA,B
Nikolay Iov,22,M,M_JR_APF,Raw,121.6,125,,,,,,170,185,195,,195,,,,,,195,1,Russia,B
Patrick Mackin,43,M,M_MR_1_APF,Raw,66.8,67.5,,,,,,137.5,-147.5,,,137.5,,,,,,137.5,1,USA,B
Reno Karkuschke,44,M,M_MR_1_APF,Raw,68.6,75,,,,,,95,-100,,,95,,,,,,95,1,Germany,B
Michael Krause,44,M,M_MR_1_APF,Raw,81.8,82.5,,,,,,152.5,157.5,-160,,157.5,,,,,,157.5,1,Canada,B
Tám Nguyen,42,M,M_MR_1_APF,Raw,81,82.5,,,,,,-150,152.5,-157.5,,152.5,,,,,,152.5,2,Slovakia,B
David Perroud,43,M,M_MR_1_APF,Raw,81.6,82.5,,,,,,120,125,-127.5,,125,,,,,,125,3,France,B
Kamil Grim,43,M,M_MR_1_APF,Raw,86.6,90,,,,,,-165,-165,-165,,,,,,,,,DQ,Czechia,B
Gennady Bogdanov,44,M,M_MR_1_APF,Raw,82.8,90,,,,,,160,170,177.5,,177.5,,,,,,177.5,1,Russia,B
Sergey Nikolaev,42,M,M_MR_1_APF,Raw,91.6,100,,,,,,-80,80,85,,85,,,,,,85,1,Russia,B
Vladimir Omelkov,42,M,M_MR_1_APF,Raw,108.6,110,,,,,,160,170,180,,180,,,,,,180,1,Russia,B
Sergei Samoilenko,42,M,M_MR_1_APF,Raw,110,110,,,,,,140,150,155,,155,,,,,,155,2,Russia,B
Erik Susztay,40,M,M_MR_1_APF,Raw,123,125,,,,,,200,205,-212.5,,205,,,,,,205,1,Slovakia,B
Vladimir Enin,42,M,M_MR_1_APF,Raw,117.8,125,,,,,,180,200,-210,,200,,,,,,200,2,Russia,B
Mikhail Artemev,43,M,M_MR_1_APF,Raw,117,125,,,,,,180,-195,,,180,,,,,,180,3,Russia,B
Alexey Brazhkin,41,M,M_MR_1_APF,Raw,128.2,140,,,,,,160,180,,,180,,,,,,180,1,Russia,B
Viktor Kochmar,42,M,M_MR_1_APF,Raw,144.8,140+,,,,,,205,215,220,,220,,,,,,220,1,Ukraine,B
Janos Szab Ozor,40,M,M_MR_1_APF,Raw,141,140+,,,,,,202.5,212.5,217.5,,217.5,,,,,,217.5,2,Hungary,B
Anatoly Nefëdov,49,M,M_MR_2_APF,Raw,67,67.5,,,,,,110,120,130,,130,,,,,,130,1,Russia,B
Michael Guerra,46,M,M_MR_2_APF,Raw,74.2,75,,,,,,-145,-145,,,,,,,,,,DQ,USA,B
Pedro Claro,46,M,M_MR_2_APF,Raw,71.8,75,,,,,,120,125,-130,,125,,,,,,125,1,Portugal,B
Jozef Slimák,46,M,M_MR_2_APF,Raw,81.8,82.5,,,,,,130,140,,,140,,,,,,140,1,Slovakia,B
Valeriy Poryadin,45,M,M_MR_2_APF,Raw,88.8,90,,,,,,-125,130,135,,135,,,,,,135,1,Russia,B
Prince Kennedy,48,M,M_MR_2_APF,Raw,84.2,90,,,,,,-110,120,130,-140,130,,,,,,130,2,Niger,B
Igor Sergeev,46,M,M_MR_2_APF,Raw,95.4,100,,,,,,200,215,220,,220,,,,,,220,1,Russia,B
Uwe Haase,48,M,M_MR_2_APF,Raw,97.6,100,,,,,,200,-212.5,-217.5,,200,,,,,,200,2,Germany,B
Dmitry Chertushkin,47,M,M_MR_2_APF,Raw,98.8,100,,,,,,150,160,-170,,160,,,,,,160,3,Russia,B
Sergey Gromov,46,M,M_MR_2_APF,Raw,104,110,,,,,,190,200,-210,,200,,,,,,200,1,Russia,B
Andrei Miasnikov,47,M,M_MR_2_APF,Raw,117,125,,,,,,-235,,,,,,,,,,,DQ,Russia,B
Ján Orosz,48,M,M_MR_2_APF,Raw,123,125,,,,,,215,225,-232.5,,225,,,,,,225,1,Slovakia,B
Vasily Chernyshenko,49,M,M_MR_2_APF,Raw,117.8,125,,,,,,150,157.5,-165,,157.5,,,,,,157.5,2,Russia,B
Péter Szabó,48,M,M_MR_2_APF,Raw,125.2,140,,,,,,165,170,175,,175,,,,,,175,1,Slovakia,B
Howard Penrose,46,M,M_MR_2_APF,Raw,137.2,140,,,,,,150,-160,-167.5,,150,,,,,,150,2,USA,B
Sergey Rubtsov,48,M,M_MR_2_APF,Raw,159.2,140+,,,,,,170,180,190,,190,,,,,,190,1,Kazakhstan,B
Eglitis Aldis,,M,M_MR_3_APF,Raw,80.4,82.5,,,,,,100,105,110,,110,,,,,,110,1,Latvia,B
Vladimir Reshetnikov,52,M,M_MR_3_APF,Raw,84,90,,,,,,140,160,172.5,,172.5,,,,,,172.5,1,Russia,B
James Briggs,53,M,M_MR_3_APF,Raw,89.2,90,,,,,,125,-142.5,-142.5,,125,,,,,,125,2,USA,B
Valeriy Akentyev,54,M,M_MR_3_APF,Raw,98.2,100,,,,,,150,155,-160,,155,,,,,,155,1,Russia,B
Evgeny Stuchkov,51,M,M_MR_3_APF,Raw,109,110,,,,,,170,-177.5,182.5,,182.5,,,,,,182.5,1,Russia,B
Mark Hennessey #1,52,M,M_MR_3_APF,Raw,123.2,125,,,,,,192.5,207.5,215,220,215,,,,,,215,1,USA,B
Jeff Conley,54,M,M_MR_3_APF,Raw,116.4,125,,,,,,190,205,-212.5,,205,,,,,,205,2,USA,B
Steve Grailer,51,M,M_MR_3_APF,Raw,118,125,,,,,,172.5,185,-192.5,,185,,,,,,185,3,USA,B
Mike De Laval,50,M,M_MR_3_APF,Raw,135.4,140,,,,,,240,-250,-250,,240,,,,,,240,1,USA,B
Tom Proya,57,M,M_MR_4_APF,Raw,80.8,82.5,,,,,,160,170,172.5,,172.5,,,,,,172.5,1,USA,B
Evgeny Basov,57,M,M_MR_4_APF,Raw,89,90,,,,,,130,135,140,,140,,,,,,140,1,Russia,B
Kalimulla Murzakhanov,57,M,M_MR_4_APF,Raw,100,100,,,,,,160,170,,,170,,,,,,170,1,Russia,B
Mark Zartarian,55,M,M_MR_4_APF,Raw,98.4,100,,,,,,137.5,145,-150,,145,,,,,,145,2,USA,B
Joe Smolinski,57,M,M_MR_4_APF,Raw,109,110,,,,,,175,185,-192.5,,185,,,,,,185,1,USA,B
Viktor Kurochkin,56,M,M_MR_4_APF,Raw,111,125,,,,,,130,140,,,140,,,,,,140,1,Ukraine,B
Randy Houseworth,57,M,M_MR_4_APF,Raw,160.6,140+,,,,,,-210,210,-215,,210,,,,,,210,1,USA,B
Sergey Poltavtsev,62,M,M_MR_5_APF,Raw,104.2,110,,,,,,-135,142.5,-155,,142.5,,,,,,142.5,1,Russia,B
Valentin Savelyev,62,M,M_MR_5_APF,Raw,103,110,,,,,,-110,-115,115,,115,,,,,,115,2,Russia,B
Grachik Egozaryan,60,M,M_MR_5_APF,Raw,116.2,125,,,,,,190,200,-205,,200,,,,,,200,1,Russia,B
Jozef Péter,62,M,M_MR_5_APF,Raw,124.8,125,,,,,,-165,165,-175,,165,,,,,,165,2,Slovakia,B
Yuriy Chepets,69,M,M_MR_6_APF,Raw,73.6,75,,,,,,135,-140,-140,,135,,,,,,135,1,Russia,B
Vince Breaux,67,M,M_MR_6_APF,Raw,97.6,100,,,,,,145,152.5,155,157.5,155,,,,,,155,1,USA,B
Ross Arnold,65,M,M_MR_6_APF,Raw,102.8,110,,,,,,125,135,140,142.5,140,,,,,,140,1,USA,B
Evgeny Vyborov,72,M,M_MR_7_APF,Raw,69.8,75,,,,,,70,80,90,,90,,,,,,90,1,Russia,B
Peter Hermann,70,M,M_MR_7_APF,Raw,79,82.5,,,,,,105,110,-112.5,,110,,,,,,110,1,Switzerland,B
Aleksandr Tkachuk,72,M,M_MR_7_APF,Raw,79.8,82.5,,,,,,-95,100,-105,,100,,,,,,100,2,Russia,B
Fredrick Shubayev,73,M,M_MR_7_APF,Raw,87,90,,,,,,107.5,115,-120,,115,,,,,,115,1,USA,B
Leon Barry,72,M,M_MR_7_APF,Raw,100,100,,,,,,137.5,142.5,-147.5,,142.5,,,,,,142.5,1,USA,B
Iosif Plagov,77,M,M_MR_8_APF,Raw,65.2,67.5,,,,,,80,-90,90,-92.5,90,,,,,,90,1,USA,B
Ian Scott,75,M,M_MR_8_APF,Raw,78.8,82.5,,,,,,102.5,105,-107.5,,105,,,,,,105,1,USA,B
David Boyes,78,M,M_MR_8_APF,Raw,79,82.5,,,,,,50,55,-57.5,,55,,,,,,55,2,USA,B
Pavol Balážik,33,M,M_OR_APF,Raw,53.3,56,,,,,,77.5,82.5,87.5,,87.5,,,,,,87.5,1,Slovakia,B
Viktor Mychko,28,M,M_OR_APF,Raw,67,67.5,,,,,,145,152.5,155,-162.5,155,,,,,,155,1,Russia,B
Patrick Mackin,43,M,M_OR_APF,Raw,66.8,67.5,,,,,,137.5,-147.5,,,137.5,,,,,,137.5,2,USA,B
Krisztián Kaiser,33,M,M_OR_APF,Raw,67.4,67.5,,,,,,120,-127.5,,,120,,,,,,120,3,Hungary,B
Chris Svoboda,24,M,M_OR_APF,Raw,74.2,75,,,,,,150,-162.5,-162.5,,150,,,,,,150,1,USA,B
Andrei Iadrintcev,24,M,M_OR_APF,Raw,75,75,,,,,,142.5,147.5,-152.5,,147.5,,,,,,147.5,2,Russia,B
Gaston Montagna,39,M,M_OR_APF,Raw,74.2,75,,,,,,135,145,-152.5,,145,,,,,,145,3,Argentina,B
Reno Karkuschke,44,M,M_OR_APF,Raw,68.6,75,,,,,,95,-100,,,95,,,,,,95,4,Germany,B
Sergey Grishko,32,M,M_OR_APF,Raw,78.8,82.5,,,,,,-210,-215,-215,,,,,,,,,DQ,Russia,B
Yerlan Alkeyev,23,M,M_OR_APF,Raw,81.2,82.5,,,,,,-190,-190,190,,190,,,,,,190,1,Kazakhstan,B
Joe Fargo,33,M,M_OR_APF,Raw,82,82.5,,,,,,157.5,165,-175,,165,,,,,,165,2,USA,B
Viacheslav Khorev,,M,M_OR_APF,Raw,81,82.5,,,,,,150,160,-170,,160,,,,,,160,3,Russia,B
Nick Keller,31,M,M_OR_APF,Raw,76.8,82.5,,,,,,132.5,140,,,140,,,,,,140,4,USA,B
Florindo Figueiredo Pinheiro,38,M,M_OR_APF,Raw,88.8,90,,,,,,225,230,235,,235,,,,,,235,1,Portugal,B
Allan Jokinen,31,M,M_OR_APF,Raw,89.4,90,,,,,,220,-230,-232.5,,220,,,,,,220,2,Finland,B
Christoph Scheel,27,M,M_OR_APF,Raw,88.6,90,,,,,,190,200,210,,210,,,,,,210,3,Germany,B
Gary Topley,27,M,M_OR_APF,Raw,88.8,90,,,,,,155,-165,-167.5,,155,,,,,,155,4,UK,B
Marek Namešpetra,35,M,M_OR_APF,Raw,95,100,,,,,,-160,,,,,,,,,,,DQ,Slovakia,B
Vladimir Flimel,36,M,M_OR_APF,Raw,99.8,100,,,,,,227.5,235,240,-250,240,,,,,,240,1,Slovakia,B
Julien Girardin,25,M,M_OR_APF,Raw,97,100,,,,,,210,-220,220,,220,,,,,,220,2,Switzerland,B
Oleksii Soloviov,37,M,M_OR_APF,Raw,97.6,100,,,,,,220,-230,-230,,220,,,,,,220,3,Ukraine,B
Martin Gunjak,31,M,M_OR_APF,Raw,98.6,100,,,,,,200,-215,-215,,200,,,,,,200,4,USA,B
Maksym Kaidan,27,M,M_OR_APF,Raw,97.4,100,,,,,,190,-200,-200,,190,,,,,,190,5,Ukraine,B
Oleksandr Dorgobuzov,24,M,M_OR_APF,Raw,95.8,100,,,,,,180,,,,180,,,,,,180,6,Ukraine,B
Petr Bolf,25,M,M_OR_APF,Raw,105.6,110,,,,,,215,222.5,-230,,222.5,,,,,,222.5,1,Czechia,B
Pavel Redkin,27,M,M_OR_APF,Raw,109.4,110,,,,,,205,215,-220,,215,,,,,,215,2,Russia,B
Christian Raidel,30,M,M_OR_APF,Raw,114.6,125,,,,,,230,-240,-240,,230,,,,,,230,1,Austria,B
Mikloš Mihajlović,37,M,M_OR_APF,Raw,122.8,125,,,,,,220,-230,230,,230,,,,,,230,2,Serbia,B
Konstantin Koshechkin,39,M,M_OR_APF,Raw,125,125,,,,,,220,225,-227.5,,225,,,,,,225,3,Russia,B
Klaus Södervall,37,M,M_OR_APF,Raw,113.2,125,,,,,,205,210,-220,,210,,,,,,210,4,Finland,B
Péter Kerecsényi,33,M,M_OR_APF,Raw,123.2,125,,,,,,195,207.5,-222.5,,207.5,,,,,,207.5,5,Hungary,B
László Mészáros,43,M,M_OR_APF,Raw,129.4,140,,,,,,280,292.5,301,,301,,,,,,301,1,Hungary,B
Alexey Pissarevskiy,35,M,M_OR_APF,Raw,133.8,140,,,,,,230,240,-250,,240,,,,,,240,2,Kazakhstan,B
Sergey Kolesnichenko,32,M,M_OR_APF,Raw,130.2,140,,,,,,230,235,-240,,235,,,,,,235,3,Russia,B
Paul Fury,36,M,M_OR_APF,Raw,131.2,140,,,,,,227.5,235,-240,,235,,,,,,235,4,Canada,B
Dustin Minks,33,M,M_OR_APF,Raw,125.8,140,,,,,,152.5,157.5,165,,165,,,,,,165,5,USA,B
Mike Wolfe #1,37,M,M_OR_APF,Raw,174.4,140+,,,,,,250,260,-272.5,,260,,,,,,260,1,USA,B
Nikita Kuzmin,24,M,M_OR_APF,Raw,140.6,140+,,,,,,215,220,-225,,220,,,,,,220,2,Russia,B
Aleksandr Naumov,37,M,M_OR_APF,Raw,148.2,140+,,,,,,205,-215,,,205,,,,,,205,3,Russia,B
Alexander Chertushkin,15,M,M_TR_1_APF,Raw,54,56,,,,,,40,47.5,52.5,,52.5,,,,,,52.5,1,Russia,B
Jobe Ashby,17,M,M_TR_2_APF,Raw,55.6,56,,,,,,65,67.5,70,-72.5,70,,,,,,70,1,USA,B
Martin Hajdu,17,M,M_TR_2_APF,Raw,67,67.5,,,,,,115,122.5,-127.5,,122.5,,,,,,122.5,1,Hungary,B
Artem Zelenin,16,M,M_TR_2_APF,Raw,63,67.5,,,,,,95,100,105,,105,,,,,,105,2,Russia,B
Grigorii Pantyukhin,17,M,M_TR_2_APF,Raw,65.2,67.5,,,,,,87.5,-95,95,,95,,,,,,95,3,Russia,B
Ilia Khodyrev,17,M,M_TR_2_APF,Raw,81,82.5,,,,,,137.5,145,152.5,,152.5,,,,,,152.5,1,Russia,B
Mohamed Mohamed,19,M,M_TR_3_APF,Raw,74.2,75,,,,,,102.5,110,122.5,,122.5,,,,,,122.5,1,USA,B
Zsolt Mák,19,M,M_TR_3_APF,Raw,86.8,90,,,,,,-180,-180,180,185.5,180,,,,,,180,1,Hungary,B
Dávid Mészáros,19,M,M_TR_3_APF,Raw,98.6,100,,,,,,180,187.5,-195,,187.5,,,,,,187.5,1,Hungary,B
Darilyn Doddy,22,F,F_JEM_APF,Multi-ply,72.8,75,,,,,,-185,-185,-185,,,,,,,,,DQ,USA,B
Piroska Balogh,41,F,F_MEM_1_APF,Multi-ply,69,75,,,,,,-150,150,160,,160,,,,,,160,1,Hungary,B
Emma Ylitalo-James,43,F,F_MES_1_APF,Single-ply,86.8,90,,,,,,-200,-200,-200,,,,,,,,,DQ,UK,B
Coralie Weir,50,F,F_MEM_3_APF,Multi-ply,50.4,52,,,,,,90,97.5,-105,,97.5,,,,,,97.5,1,Australia,B
Nora Langdon,70,F,F_MEM_7_APF,Multi-ply,85,90,,,,,,62.5,70,77.5,-87.5,77.5,,,,,,77.5,1,USA,B
Anna Konoval,28,F,F_OEM_APF,Multi-ply,55.4,56,,,,,,105,110,-115,,110,,,,,,110,1,Ukraine,B
Anne Heikkilä,33,F,F_OEM_APF,Multi-ply,66.6,67.5,,,,,,155,-162.5,-162.5,,155,,,,,,155,1,Finland,B
Yulia Medvedeva,33,F,F_OEM_APF,Multi-ply,74.6,75,,,,,,172.5,185,-192.5,,185,,,,,,185,1,Russia,B
Rita Nagy,38,F,F_OEM_APF,Multi-ply,68.8,75,,,,,,130,135,140,142.5,140,,,,,,140,2,Hungary,B
Anna Turaeva,34,F,F_OEM_APF,Multi-ply,80.6,82.5,,,,,,165,175,-182.5,,175,,,,,,175,1,Russia,B
Viktoriya Sheludko,39,F,F_OEM_APF,Multi-ply,84.8,90,,,,,,205,215,-220,,215,,,,,,215,1,Russia,B
Anna McCloskey,19,F,F_OEM_APF,Multi-ply,88.4,90,,,,,,132.5,-150,-150,,132.5,,,,,,132.5,2,USA,B
Heather Davidson,30,F,F_OEM_APF,Multi-ply,131.4,90+,,,,,,-125,-132.5,-145,,,,,,,,,DQ,Australia,B
Liane Sabourin,37,F,F_OEM_APF,Multi-ply,123.4,90+,,,,,,-150,-150,150,,150,,,,,,150,1,Canada,B
Anna McCloskey,19,F,F_TEM_3_APF,Multi-ply,88.4,90,,,,,,132.5,-150,-150,,132.5,,,,,,132.5,1,USA,B
Kyle Young,24,M,M_OEM_APF,Multi-ply,81.6,82.5,,,,,,-185,-185,-185,,,,,,,,,DQ,UK,B
Gerrit Scheel,21,M,M_JEM_APF,Multi-ply,77.6,82.5,,,,,,160,-165,165,,165,,,,,,165,1,Germany,B
Kalle Räsänen,22,M,M_JEM_APF,Multi-ply,90,90,,,,,,200,,,,200,,,,,,200,1,Finland,B
Marcus Heuer,20,M,M_JEM_APF,Multi-ply,99.2,100,,,,,,-270,-270,-277.5,,,,,,,,,DQ,Germany,B
Máté Szilágyi,21,M,M_JEM_APF,Multi-ply,96.6,100,,,,,,275,-290,-290,,275,,,,,,275,1,Hungary,B
Serhii Ivanov,22,M,M_JEM_APF,Multi-ply,102.2,110,,,,,,-280,280,-290,,280,,,,,,280,1,Ukraine,B
Oskari Lehtinen,23,M,M_JEM_APF,Multi-ply,107.4,110,,,,,,280,-290,-290,,280,,,,,,280,2,Finland,B
Laszlo Tamas,21,M,M_JEM_APF,Multi-ply,113.8,125,,,,,,220,-230,-230,,220,,,,,,220,1,Hungary,B
Robert Vogelsang,22,M,M_JEM_APF,Multi-ply,119.8,125,,,,,,-165,165,-180,,165,,,,,,165,2,USA,B
Richard Singh,23,M,M_JEM_APF,Multi-ply,153.8,140+,,,,,,310,-320,-320,,310,,,,,,310,1,Canada,B
Reno Karkuschke,44,M,M_MEM_1_APF,Multi-ply,66.6,67.5,,,,,,110,-117.5,117.5,,117.5,,,,,,117.5,1,Germany,B
Vincent Eldin,40,M,M_MEM_1_APF,Multi-ply,74.6,75,,,,,,-175,175,-195,,175,,,,,,175,1,France,B
Jeff Rebera,44,M,M_MEM_1_APF,Multi-ply,98.2,100,,,,,,-255,255,,,255,,,,,,255,1,USA,B
Mikhail Fedulov,42,M,M_MEM_1_APF,Multi-ply,95.4,100,,,,,,140,150,165,,165,,,,,,165,2,Russia,B
Stanley Tomaszkiewicz,43,M,M_MEM_1_APF,Multi-ply,108.4,110,,,,,,-310,-310,-310,,,,,,,,,DQ,USA,B
Ferenc Balázs,42,M,M_MEM_1_APF,Multi-ply,107.4,110,,,,,,-310,-310,-310,,,,,,,,,DQ,Hungary,B
Eric Platel,41,M,M_MEM_1_APF,Multi-ply,105.6,110,,,,,,-250,-250,250,,250,,,,,,250,1,France,B
Vladimir Omelkov,42,M,M_MEM_1_APF,Multi-ply,106.2,110,,,,,,230,-240,-240,,230,,,,,,230,2,Russia,B
Dmitry Gorbachev,42,M,M_MEM_1_APF,Multi-ply,112.5,125,,,,,,-300,300,-310,,300,,,,,,300,1,Russia,B
Salim Merah,42,M,M_MEM_1_APF,Multi-ply,120.2,125,,,,,,-260,260,-280,,260,,,,,,260,2,France,B
Mikhail Artemev,43,M,M_MEM_1_APF,Multi-ply,115.4,125,,,,,,200,215,,,215,,,,,,215,3,Russia,B
Alexey Brazhkin,41,M,M_MEM_1_APF,Multi-ply,128,140,,,,,,220,250,260,,260,,,,,,260,1,Russia,B
Vincent Lofe,41,M,M_MEM_1_APF,Multi-ply,144.6,140+,,,,,,-250,-250,-260,,,,,,,,,DQ,France,B
János Szabó Ozor,40,M,M_MEM_1_APF,Multi-ply,141.5,140+,,,,,,190,200,210,,210,,,,,,210,1,Hungary,B
Anatoly Nefëdov,49,M,M_MEM_2_APF,Multi-ply,67.4,67.5,,,,,,150,160,-165,,160,,,,,,160,1,Russia,B
Jozef Slimák,46,M,M_MEM_2_APF,Multi-ply,82.2,82.5,,,,,,165,180,-190,,180,,,,,,180,1,Slovakia,B
Yury Petriakov,48,M,M_MEM_2_APF,Multi-ply,89.2,90,,,,,,-225,-225,-225,,,,,,,,,DQ,Russia,B
Valery Poryadin,46,M,M_MEM_2_APF,Multi-ply,89.6,90,,,,,,,,,,,,,,,,,DQ,Russia,B
John Dietrich,46,M,M_MEM_2_APF,Multi-ply,95.2,100,,,,,,-190,-190,-190,,,,,,,,,DQ,Canada,B
Fred Woodson,45,M,M_MEM_2_APF,Multi-ply,99.2,100,,,,,,-257.5,-257.5,-265,,,,,,,,,DQ,USA,B
Tom Waldrep,48,M,M_MEM_2_APF,Multi-ply,98.2,100,,,,,,-307.5,-307.5,-307.5,,,,,,,,,DQ,USA,B
Igor Sergeev,46,M,M_MEM_2_APF,Multi-ply,95.8,100,,,,,,280,290,-305,,290,,,,,,290,1,Russia,B
Dmitry Chertushkin,47,M,M_MEM_2_APF,Multi-ply,98.8,100,,,,,,190,-205,-205,,190,,,,,,190,2,Russia,B
Rick Lawrence,47,M,M_MEM_2_APF,Multi-ply,108.8,110,,,,,,-282.5,-282.5,-282.5,,,,,,,,,DQ,USA,B
Oleg Korotaev,47,M,M_MEM_2_APF,Multi-ply,108.2,110,,,,,,150,170,,,170,,,,,,170,1,Russia,B
Eric Hubbs,48,M,M_MEM_2_APF,Multi-ply,123.6,125,,,,,,-282.5,-290,-290,,,,,,,,,DQ,USA,B
John LaComb,45,M,M_MEM_2_APF,Multi-ply,121.4,125,,,,,,-250,-250,-250,,,,,,,,,DQ,USA,B
Didier Michelon,49,M,M_MEM_2_APF,Multi-ply,114.8,125,,,,,,320,-327.5,-327.5,,320,,,,,,320,1,France,B
Alexey Neklyudov,48,M,M_MEM_2_APF,Multi-ply,111.8,125,,,,,,265,-275,-275,,265,,,,,,265,2,Russia,B
Jerry Foltz,47,M,M_MEM_2_APF,Multi-ply,128.6,140,,,,,,272.5,-282.5,,,272.5,,,,,,272.5,1,USA,B
Markus Veirs,50,M,M_MEM_3_APF,Multi-ply,75,75,,,,,,185,197.5,-212.5,,197.5,,,,,,197.5,1,USA,B
Michel Fauque,53,M,M_MEM_3_APF,Multi-ply,73.8,75,,,,,,135,-150,-150,,135,,,,,,135,2,France,B
Tracy Frein,54,M,M_MEM_3_APF,Multi-ply,89.6,90,,,,,,-150,-150,-150,,,,,,,,,DQ,USA,B
Didier Theux,54,M,M_MEM_3_APF,Multi-ply,87.6,90,,,,,,-210,-210,-210,,,,,,,,,DQ,France,B
Yury Korikov,50,M,M_MEM_3_APF,Multi-ply,88.8,90,,,,,,-220,220,-230,,220,,,,,,220,1,Russia,B
Ronnie LaSuzzo,54,M,M_MEM_3_APF,Multi-ply,89.4,90,,,,,,192.5,-205,205,,205,,,,,,205,2,USA,B
Jim Briggs,53,M,M_MEM_3_APF,Multi-ply,90,90,,,,,,152.5,-162.5,-162.5,,152.5,,,,,,152.5,3,USA,B
Lloyd Hemenway,52,M,M_MEM_3_APF,Multi-ply,99.4,100,,,,,,-225,-225,-225,,,,,,,,,DQ,USA,B
Stéphane Chavin Gazalier,51,M,M_MEM_3_APF,Multi-ply,97.2,100,,,,,,-230,-230,,,,,,,,,,DQ,France,B
Akentyev Valeriy,54,M,M_MEM_3_APF,Multi-ply,99.2,100,,,,,,-215,215,225,,225,,,,,,225,1,Russia,B
Bruce McCord,51,M,M_MEM_3_APF,Multi-ply,109.4,110,,,,,,-210,-210,-210,,,,,,,,,DQ,USA,B
Tony Bartolomei,54,M,M_MEM_3_APF,Multi-ply,107.8,110,,,,,,-237.5,237.5,-245,,237.5,,,,,,237.5,1,USA,B
Mark Hennessey #1,52,M,M_MEM_3_APF,Multi-ply,123.4,125,,,,,,257.5,272.5,-290,,272.5,,,,,,272.5,1,USA,B
Steve Grailer,51,M,M_MEM_3_APF,Multi-ply,118.2,125,,,,,,230,-237.5,-237.5,,230,,,,,,230,2,USA,B
Georgy Lopatskiy,50,M,M_MEM_3_APF,Multi-ply,132,140,,,,,,-270,-270,270,,270,,,,,,270,1,Russia,B
Virginijus Kairevičius,52,M,M_MEM_3_APF,Multi-ply,128,140,,,,,,150,200,220,,220,,,,,,220,2,Latvia,B
Péter Mihály,54,M,M_MEM_3_APF,Multi-ply,141.6,140+,,,,,,200,-230,-240,,200,,,,,,200,1,Slovakia,B
Les Fleiszig,55,M,M_MEM_4_APF,Multi-ply,80.8,82.5,,,,,,-155,155,-162.5,,155,,,,,,155,1,Canada,B
Tom West,55,M,M_MEM_4_APF,Multi-ply,90,90,,,,,,-160,-160,-160,,,,,,,,,DQ,USA,B
Alain-Francis Mattei,57,M,M_MEM_4_APF,Multi-ply,89.2,90,,,,,,160,180,185,,185,,,,,,185,1,France,B
Evgeny Basov,57,M,M_MEM_4_APF,Multi-ply,89.2,90,,,,,,155,-170,175,,175,,,,,,175,2,Russia,B
Bruce McIntyre,55,M,M_MEM_4_APF,Multi-ply,97.6,100,,,,,,-222.5,-222.5,,,,,,,,,,DQ,Canada,B
Kalimulla Murzakhanov,57,M,M_MEM_4_APF,Multi-ply,99.2,100,,,,,,200,-205,-205,,200,,,,,,200,1,Russia,B
Joe Smolinski,57,M,M_MEM_4_APF,Multi-ply,108.2,110,,,,,,-285,-285,,,,,,,,,,DQ,USA,B
Dave Murphy,57,M,M_MEM_4_APF,Multi-ply,113,125,,,,,,-235,-235,-320,,,,,,,,,DQ,USA,B
Gary Bobrovitz,60,M,M_MEM_5_APF,Multi-ply,64.4,67.5,,,,,,125,132.5,135,137.5,135,,,,,,135,1,Canada,B
Klaus Krüger,60,M,M_MEM_5_APF,Multi-ply,88.2,90,,,,,,175,185,190,,190,,,,,,190,1,Germany,B
Ulrich Vetter,60,M,M_MEM_5_APF,Multi-ply,103.8,110,,,,,,190,200,205,,205,,,,,,205,1,Germany,B
Tom Nelson,63,M,M_MEM_5_APF,Multi-ply,118.2,125,,,,,,190,-195,-195,,190,,,,,,190,1,USA,B
Jozef Péter,62,M,M_MEM_5_APF,Multi-ply,125,125,,,,,,190,-197.5,-197.5,,190,,,,,,190,2,Slovakia,B
Evgeny Khudoleev,66,M,M_MEM_6_APF,Multi-ply,89.8,90,,,,,,170,175,-180,,175,,,,,,175,1,Russia,B
Vince Breaux,67,M,M_MEM_6_APF,Multi-ply,98.2,100,,,,,,182.5,192.5,-205,,192.5,,,,,,192.5,1,USA,B
Pekka Korhonen,68,M,M_MEM_6_APF,Multi-ply,103.4,110,,,,,,140,155,-175,,155,,,,,,155,1,Finland,B
Peter Herrmann,70,M,M_MEM_7_APF,Multi-ply,79.2,82.5,,,,,,120,125,-130,,125,,,,,,125,1,Switzerland,B
Larry Sandberg,72,M,M_MEM_7_APF,Multi-ply,106.8,110,,,,,,-185,-185,,,,,,,,,,DQ,USA,B
Reno Karkuschke,44,M,M_OEM_APF,Multi-ply,66.6,67.5,,,,,,110,-117.5,117.5,,117.5,,,,,,117.5,1,Germany,B
Clark Yeo,38,M,M_OEM_APF,Multi-ply,72.6,75,,,,,,-105,-105,-105,,,,,,,,,DQ,Canada,B
Markus Veirs,50,M,M_OEM_APF,Multi-ply,75,75,,,,,,185,197.5,-212.5,,197.5,,,,,,197.5,1,USA,B
Stanislav Marochko,30,M,M_OEM_APF,Multi-ply,71.2,75,,,,,,155,165,-175,,165,,,,,,165,2,Ukraine,B
Sergiy Nalieikin,31,M,M_OEM_APF,Multi-ply,79.6,82.5,,,,,,-270,-270,-270,,,,,,,,,DQ,Ukraine,B
Joe Fargo,33,M,M_OEM_APF,Multi-ply,81.8,82.5,,,,,,-230,235,-242.5,,235,,,,,,235,1,USA,B
Denis Pronin,24,M,M_OEM_APF,Multi-ply,78.2,82.5,,,,,,205,212.5,220,,220,,,,,,220,2,Canada,B
Sergiy Kovalev,24,M,M_OEM_APF,Multi-ply,88.8,90,,,,,,-180,-180,-180,,,,,,,,,DQ,Ukraine,B
Christoph Scheel,27,M,M_OEM_APF,Multi-ply,89.6,90,,,,,,-230,-230,-230,,,,,,,,,DQ,Germany,B
Yuji Watanabe,32,M,M_OEM_APF,Multi-ply,90,90,,,,,,-305,-310,-310,,,,,,,,,DQ,Japan,B
Martin Siska,28,M,M_OEM_APF,Multi-ply,83.6,90,,,,,,160,-180,-180,,160,,,,,,160,1,Slovakia,B
Eric DeCaires,26,M,M_OEM_APF,Multi-ply,98.6,100,,,,,,-297.5,-297.5,-305,,,,,,,,,DQ,USA,B
Oleksandr Dorgobuzov,24,M,M_OEM_APF,Multi-ply,96.4,100,,,,,,-270,,,,,,,,,,,DQ,Ukraine,B
Mustafa Ahmedov,32,M,M_OEM_APF,Multi-ply,97.8,100,,,,,,-305,-305,,,,,,,,,,DQ,Azerbaijan,B
Jeff Johnston #1,33,M,M_OEM_APF,Multi-ply,100,100,,,,,,-305,305,310,,310,,,,,,310,1,USA,B
Roman Anpilogov,32,M,M_OEM_APF,Multi-ply,99.4,100,,,,,,-285,285,295,,295,,,,,,295,2,Russia,B
Igor Sergeev,46,M,M_OEM_APF,Multi-ply,95.8,100,,,,,,280,290,-305,,290,,,,,,290,3,Russia,B
Oleksandr Kucher,27,M,M_OEM_APF,Multi-ply,99.8,100,,,,,,290,-295,-295,,290,,,,,,290,4,Ukraine,B
David Velička,35,M,M_OEM_APF,Multi-ply,95.6,100,,,,,,240,-245,-250,,240,,,,,,240,5,Czechia,B
Angelo Giannosa,29,M,M_OEM_APF,Multi-ply,99,100,,,,,,172.5,182.5,190,,190,,,,,,190,6,USA,B
Petr Bolf,25,M,M_OEM_APF,Multi-ply,107.4,110,,,,,,-280,-280,-282.5,,,,,,,,,DQ,Czechia,B
Rick Lawrence,47,M,M_OEM_APF,Multi-ply,108.8,110,,,,,,-282.5,-282.5,-282.5,,,,,,,,,DQ,USA,B
Zoltán Csepregi,37,M,M_OEM_APF,Multi-ply,108.4,110,,,,,,-370,-370,-380,,,,,,,,,DQ,Hungary,B
Denis Knyazev,25,M,M_OEM_APF,Multi-ply,106.2,110,,,,,,-320,320,330,,330,,,,,,330,1,Russia,B
John LaComb,45,M,M_OEM_APF,Multi-ply,121.4,125,,,,,,-250,-250,-250,,,,,,,,,DQ,USA,B
Petteri Hosio Henrik,33,M,M_OEM_APF,Multi-ply,123.4,125,,,,,,330,340,,,340,,,,,,340,1,Finland,B
Victor Klimov,37,M,M_OEM_APF,Multi-ply,114.4,125,,,,,,-300,310,-325,,310,,,,,,310,2,Russia,B
Kalle Ylitalo,29,M,M_OEM_APF,Multi-ply,117.5,125,,,,,,305,-322.5,-322.5,,305,,,,,,305,3,Finland,B
Dmitry Gorbachev,42,M,M_OEM_APF,Multi-ply,112.5,125,,,,,,-300,300,-310,,300,,,,,,300,4,Russia,B
Ibrahim Ibrahimov,31,M,M_OEM_APF,Multi-ply,119,125,,,,,,-300,300,-312.5,,300,,,,,,300,5,Azerbaijan,B
Dan Dvořák,36,M,M_OEM_APF,Multi-ply,120.6,125,,,,,,300,-307.5,-312.5,,300,,,,,,300,6,Czechia,B
Danny Rodriguez #1,27,M,M_OEM_APF,Multi-ply,115.8,125,,,,,,215,230,-237.5,,230,,,,,,230,7,USA,B
Ján Šiska,32,M,M_OEM_APF,Multi-ply,115.6,125,,,,,,-205,205,-232.5,,205,,,,,,205,8,Slovakia,B
Richard Ligier,37,M,M_OEM_APF,Multi-ply,138.8,140,,,,,,-450,-450,,,,,,,,,,DQ,France,B
Wade Butcher,37,M,M_OEM_APF,Multi-ply,131.4,140,,,,,,-242.5,-242.5,,,,,,,,,,DQ,USA,B
Dmitry Pemyakov,37,M,M_OEM_APF,Multi-ply,128.2,140,,,,,,320,340,-350,,340,,,,,,340,1,Russia,B
Peter Funtík,34,M,M_OEM_APF,Multi-ply,126.4,140,,,,,,265,-275,275,,275,,,,,,275,2,Slovakia,B
Joel Mott,33,M,M_OEM_APF,Multi-ply,186,140+,,,,,,-217.5,-217.5,-217.5,,,,,,,,,DQ,USA,B
Scot Mendelson,,M,M_OEM_APF,Multi-ply,143.6,140+,,,,,,-452.5,-470,-470,,,,,,,,,DQ,USA,B
Oleksandr Gonchar,34,M,M_OEM_APF,Multi-ply,147.8,140+,,,,,,350,355,362.5,,362.5,,,,,,362.5,1,Ukraine,B
Ilkka Lukkarinen,24,M,M_OEM_APF,Multi-ply,144.2,140+,,,,,,350,-360,-362.5,,350,,,,,,350,2,Finland,B
Jiří Havrda,38,M,M_OEM_APF,Multi-ply,145.6,140+,,,,,,320,-342.5,-355,,320,,,,,,320,3,Czechia,B
William Damon Dixon,34,M,M_OEM_APF,Multi-ply,175,140+,,,,,,-265,265,-300,,265,,,,,,265,4,USA,B
Martin Hajdu,17,M,M_TEM_2_APF,Multi-ply,67.2,67.5,,,,,,130,140,-150,,140,,,,,,140,1,Hungary,B
Gergő Vakarcs,16,M,M_TEM_2_APF,Multi-ply,81,82.5,,,,,,-185,-185,185,192.5,185,,,,,,185,1,Hungary,B
Quentin DaCosta,17,M,M_TEM_2_APF,Multi-ply,98.4,100,,,,,,135,145,-157.5,,145,,,,,,145,1,France,B
Miroslav Čaba,19,M,M_TEM_3_APF,Multi-ply,81.8,82.5,,,,,,180,200,,,200,,,,,,200,1,Slovakia,B
Zsolf Mak,19,M,M_TEM_3_APF,Multi-ply,88.8,90,,,,,,200,-240,-240,,200,,,,,,200,1,Hungary,B
Michal Líška,19,M,M_TEM_3_APF,Multi-ply,97.8,100,,,,,,220,230,-240,,230,,,,,,230,1,Slovakia,B
Richárd Buda,19,M,M_TEM_3_APF,Multi-ply,101.8,110,,,,,,-280,-280,-285,,,,,,,,,DQ,Hungary,B
Lidia Sizova,23,F,F_JR_APF,Raw,55,56,60,65,-70,65,,25,30,-32.5,,30,70,80,-85,,80,175,1,Russia,SBD
Alyssa Smith,20,F,F_JR_APF,Raw,82,82.5,170,180,-185,180,,-87.5,-87.5,87.5,-95,87.5,205,-212.5,-212.5,,205,472.5,1,Canada,SBD
Adrienne Nickerson,46,F,F_MR_2_APF,Raw,50.8,52,65,-75,-80,65,,37.5,-45,-45,,37.5,80,-90,-100,,80,182.5,1,Canada,SBD
Coralie Weir,50,F,F_MR_3_APF,Raw,51.2,52,100,-110,-110,100,,70,80,82.5,-85,82.5,135,-140,-140,,135,317.5,1,Australia,SBD
Donna Bunton,51,F,F_MR_3_APF,Raw,65.8,67.5,-60,65,70,70,80,40,45,-50,,45,100,105,112.5,117.5,112.5,227.5,1,USA,SBD
Lynne Boshoven,55,F,F_MR_4_APF,Raw,80.4,82.5,130,-140,-140,130,,92.5,100,105,-110,105,187.5,205,-215,,205,440,1,USA,SBD
Suzanne Prusnek,56,F,F_MR_4_APF,Raw,68.8,75,132.5,140,142.5,142.5,-145,85,87.5,-90,,87.5,170,180,182.5,185,182.5,412.5,1,USA,SBD
Janet Sink,69,F,F_MR_6_APF,Raw,85.6,90,37.5,42.5,47.5,47.5,50,-40,42.5,45,,45,77.5,92.5,100,102.5,100,192.5,1,USA,SBD
Lucila McMahon,70,F,F_MR_7_APF,Raw,46.8,48,52.5,57.5,-60,57.5,,-35,37.5,-40,,37.5,72.5,77.5,82.5,-85,82.5,177.5,1,USA,SBD
Leslie Watson,,F,F_OR_APF,Raw,43.6,44,47.5,50,52.5,52.5,,55,57.5,60,,60,80,87.5,-90,,87.5,200,1,UK,SBD
Gunel Talybova,30,F,F_OR_APF,Raw,52,52,115,127.5,132.5,132.5,,80,85,87.5,,87.5,165,180,185,,185,405,1,Azerbaijan,SBD
Jenn Rotsinger,34,F,F_OR_APF,Raw,52.6,56,125,-132.5,132.5,132.5,,85,-87.5,-87.5,,85,157.5,167.5,172.5,-175,172.5,390,1,USA,SBD
Mariya Yultsova,30,F,F_OR_APF,Raw,55,56,75,80,-85,80,,55,57.5,-60,,57.5,122.5,127.5,132.5,,132.5,270,2,Russia,SBD
Marilia Coutinho,49,F,F_OR_APF,Raw,58,60,140,-147.5,147.5,147.5,-150,97.5,102.5,-107.5,,102.5,160,167.5,175,-180,175,425,1,Brazil,SBD
Taylor Young #1,57,F,F_OR_APF,Raw,59.8,60,135,145,152.5,152.5,,92.5,95,-97.5,,95,165,175,-180,,175,422.5,2,Australia,SBD
Daisy Kuischmann,33,F,F_OR_APF,Raw,66.2,67.5,132.5,142.5,152.5,152.5,-160,-65,-65,65,,65,140,160,172.5,,172.5,390,1,Colombia,SBD
Hilda Siegel,35,F,F_OR_APF,Raw,64.8,67.5,-90,95,-110,95,,62.5,67.5,70,,70,120,130,-137.5,,130,295,2,Canada,SBD
Yelizaveta Mirzayeva,29,F,F_OR_APF,Raw,66.4,67.5,100,-110,-110,100,,50,55,60,,60,110,120,-130,,120,280,3,Kazakhstan,SBD
Xiaoxue Han,30,F,F_OR_APF,Raw,66.8,67.5,75,85,97.5,97.5,,50,55,-62.5,,55,100,112.5,120,,120,272.5,4,UK,SBD
Chanel Mann,33,F,F_OR_APF,Raw,64.2,67.5,85,-100,-115,85,,60,65,-67.5,,65,90,105,-115,,105,255,5,USA,SBD
Sonji Baldwin,43,F,F_OR_APF,Raw,74.2,75,130,140,152.5,152.5,,112.5,127.5,-137.5,,127.5,92.5,115,142.5,,142.5,422.5,1,USA,SBD
Suzanne Prusnek,56,F,F_OR_APF,Raw,68.8,75,132.5,140,142.5,142.5,,85,87.5,-90,,87.5,170,180,182.5,185,182.5,412.5,2,USA,SBD
Dora Lontro,24,F,F_OR_APF,Raw,75,75,112.5,120,125,125,,62.5,67.5,-72.5,,67.5,140,150,-152.5,,150,342.5,3,Portugal,SBD
Alyssa Smith,20,F,F_OR_APF,Raw,82,82.5,170,180,-185,180,,-87.5,-87.5,87.5,-95,87.5,205,-212.5,-212.5,,205,472.5,1,Canada,SBD
Anna Khudayarov,24,F,F_OR_APF,Raw,82.6,90,125,145,160,160,165,105,115,120,122.5,120,160,180,-185,,180,460,1,Finland,SBD
Anna McCloskey,19,F,F_OR_APF,Raw,88.6,90,145,-157.5,157.5,157.5,,82.5,90,-92.5,,90,185,197.5,212.5,,212.5,460,2,USA,SBD
Heather Davidson,30,F,F_OR_APF,Raw,131.2,90+,-110,110,-125,110,,60,-70,-80,,60,125,145,-160,,145,315,1,Australia,SBD
Gwendolyn Sheridan,16,F,F_TR_2_APF,Raw,54.8,56,55,57.5,60,60,,47.5,50,52.5,,52.5,-95,105,115,,115,227.5,1,Canada,SBD
Anna McCloskey,19,F,F_TR_3_APF,Raw,88.6,90,145,-157.5,157.5,157.5,,82.5,90,-92.5,,90,185,197.5,212.5,,212.5,460,1,USA,SBD
Reno Karkuschke,44,M,M_MR_1_APF,Raw,67,67.5,-105,105,110,110,112.5,92.5,-97.5,97.5,100,97.5,115,122.5,130,135,130,337.5,1,Germany,SBD
Greg Hills,41,M,M_MR_1_APF,Raw,72.8,75,-160,175,-190,175,,125,132.5,-140,,132.5,200,220,235,250,235,542.5,1,Australia,SBD
Dmytro Solovyov,42,M,M_MR_1_APF,Raw,80,82.5,200,215,225,225,,150,160,167.5,170.5,167.5,240,255,265,275.5,265,657.5,1,Ukraine,SBD
Jim Duvall,43,M,M_MR_1_APF,Raw,75.6,82.5,142.5,-150,-150,142.5,,105,-110,-110,,105,187.5,197.5,205,,205,452.5,2,USA,SBD
Kaiser Young,41,M,M_MR_1_APF,Raw,98.2,100,227.5,-240,240,240,,182.5,192.5,200,205,200,227.5,250,-262.5,,250,690,1,USA,SBD
Trey Love,44,M,M_MR_1_APF,Raw,107.4,110,210,232.5,250,250,,147.5,162.5,170,,170,285,312.5,320,327.5,320,740,1,USA,SBD
Sean Donegan,43,M,M_MR_1_APF,Raw,110,110,-245,245,250,250,,175,-182.5,182.5,,182.5,275,287.5,-300,,287.5,720,2,USA,SBD
Brad Lentini,43,M,M_MR_1_APF,Raw,102.6,110,172.5,182.5,202.5,202.5,,145,155,160,,160,180,192.5,200,,200,562.5,3,Canada,SBD
Michael Schrott,40,M,M_MR_1_APF,Raw,125,125,300,-320,-320,300,,205,212.5,-217.5,,212.5,300,315,-322.5,,315,827.5,1,Germany,SBD
Adriano DaCosta,49,M,M_MR_2_APF,Raw,73,75,195,215,-230,215,,130,-140,140,,140,220,235,-242.5,,235,590,1,France,SBD
Raul Amil,49,M,M_MR_2_APF,Raw,72.6,75,145,155,-160,155,,102.5,-107.5,107.5,,107.5,170,180,190,,190,452.5,2,Argentina,SBD
Prince Kennedy,48,M,M_MR_2_APF,Raw,82.5,82.5,-180,180,200,200,210,110,125,-130,,125,180,200,220,-250,220,545,1,Niger,SBD
Tom Reiter,48,M,M_MR_2_APF,Raw,99.2,100,197.5,-215,-215,197.5,,60,,,,60,-60,-60,,,,,DQ,USA,SBD
Dmitriy Chertushkin,47,M,M_MR_2_APF,Raw,99.2,100,190,200,210,210,,150,157.5,162.5,,162.5,190,210,-225,,210,582.5,1,Russia,SBD
Valeriy Razdorozhnyy,47,M,M_MR_2_APF,Raw,97,100,-170,170,180,180,,150,155,160,,160,160,180,190,,190,530,2,Ukraine,SBD
Tom Hayes,47,M,M_MR_2_APF,Raw,98.2,100,147.5,160,-167.5,160,,120,127.5,-132.5,,127.5,210,220,-227.5,,220,507.5,3,Canada,SBD
Vladimir Minin,45,M,M_MR_2_APF,Raw,102.6,110,270,280,290,290,,160,165,,,165,270,285,295,,295,750,1,Russia,SBD
Saul Salazar,48,M,M_MR_2_APF,Raw,100.8,110,215,230,240,240,,155,165,170,,170,240,255,270,300,270,680,2,Colombia,SBD
Brett Hill,46,M,M_MR_2_APF,Raw,108.2,110,205,-230,-230,205,,125,-140,-140,,125,225,240,-250,,240,570,3,USA,SBD
Jim Haskayne,48,M,M_MR_2_APF,Raw,105,110,-170,170,182.5,182.5,,115,-120,-120,,115,192.5,205,210,,210,507.5,4,Canada,SBD
Andrei Miasnikov,47,M,M_MR_2_APF,Raw,117.2,125,-235,235,250,250,,165,180,187.5,,187.5,235,250,265,,265,702.5,1,Russia,SBD
Michael Nicholas,47,M,M_MR_2_APF,Raw,112.2,125,220,245,-267.5,245,,150,-165,,,150,250,-285,,,250,645,2,Australia,SBD
Péter Szabó,48,M,M_MR_2_APF,Raw,125.2,140,170,185,200,200,,155,165,170,,170,250,270,,,270,640,1,Slovakia,SBD
Howard Penrose,46,M,M_MR_2_APF,Raw,136.6,140,165,-167.5,-167.5,165,,140,145,157.5,,157.5,190,200,212.5,,212.5,535,2,USA,SBD
Sergey Rubtsov,48,M,M_MR_2_APF,Raw,157.4,140+,240,260,270,270,,180,190,200,,200,260,280,285,,285,755,1,Kazakhstan,SBD
Norman Rice,46,M,M_MR_2_APF,Raw,171.2,140+,275,-280,,275,,175,185,195,,195,250,270,-282.5,,270,740,2,USA,SBD
Yong-Soo Lee,50,M,M_MR_3_APF,Raw,81,82.5,200,210,220,220,230,130,142.5,147.5,,147.5,190,210,-220,,210,577.5,1,South Korea,SBD
Tim Roche,52,M,M_MR_3_APF,Raw,80.8,82.5,145,152.5,157.5,157.5,,-142.5,147.5,-152.5,,147.5,160,182.5,200,,200,505,2,USA,SBD
Marvin Mann,51,M,M_MR_3_APF,Raw,96,100,145,185,200,200,,145,160,-172.5,,160,200,230,240,,240,600,1,USA,SBD
David Summers,51,M,M_MR_3_APF,Raw,94.4,100,182.5,-200,-205,182.5,,132.5,145,155,,155,190,205,227.5,,227.5,565,2,USA,SBD
Ian Bingle,53,M,M_MR_3_APF,Raw,105.2,110,150,-170,-170,150,,120,-130,-130,,120,170,185,200,,200,470,1,UK,SBD
Alexander Bulakov,53,M,M_MR_3_APF,Raw,130.6,140,210,225,235,235,,175,190,200,,200,230,245,250,,250,685,1,Russia,SBD
Anatolii Bochkovsyi,58,M,M_MR_4_APF,Raw,66.2,67.5,130,155,165,165,,80,92.5,-95,,92.5,170,182.5,192.5,,192.5,450,1,Ukraine,SBD
Calin Eschenasy,56,M,M_MR_4_APF,Raw,74.8,75,100,150,-170,150,,80,100,-105,,100,150,180,-200,,180,430,1,Germany,SBD
Alexander Tcvetkov,55,M,M_MR_4_APF,Raw,88.8,90,200,215,,215,,115,122.5,-127.5,,122.5,210,242.5,,,242.5,580,1,Russia,SBD
Matt Nichols,59,M,M_MR_4_APF,Raw,88.8,90,-130,135,140,140,,120,135,137.5,-140,137.5,155,165,182.5,,182.5,460,2,USA,SBD
Steve Kylis,60,M,M_MR_5_APF,Raw,88.2,90,197.5,-205,-205,197.5,,152.5,157.5,-162.5,,157.5,222.5,230,235,240,235,590,1,USA,SBD
Michael Shealy,60,M,M_MR_5_APF,Raw,98.8,100,-165,-165,165,165,,-115,115,-127.5,,115,175,192.5,-205,,192.5,472.5,1,USA,SBD
Timothy Sheenan,60,M,M_MR_5_APF,Raw,97.8,100,147.5,-165,-165,147.5,,130,-142.5,-142.5,,130,162.5,180,192.5,,192.5,470,2,USA,SBD
Valentin Savelyev,62,M,M_MR_5_APF,Raw,102.2,110,130,150,-170,150,,100,120,-135,,120,160,200,215,,215,485,1,Russia,SBD
Sergey Poltavtsev,62,M,M_MR_5_APF,Raw,104,110,125,140,152.5,152.5,,130,145,-150,,145,170,-185,-187.5,,170,467.5,2,Russia,SBD
Gordon Santee,66,M,M_MR_6_APF,Raw,63.6,67.5,75,85,95,95,102.5,65,72.5,77.5,80,77.5,165,175,185,190,185,357.5,1,USA,SBD
Yuriy Chepets,69,M,M_MR_6_APF,Raw,74.8,75,170,185,-195,185,,127.5,-132.5,132.5,,132.5,180,195,200,,200,517.5,1,Russia,SBD
Vince Breaux,67,M,M_MR_6_APF,Raw,97,100,125,137.5,142.5,142.5,,137.5,142.5,150,155,150,170,195,202.5,207.5,202.5,495,1,USA,SBD
Tom Walters,74,M,M_MR_7_APF,Raw,89.4,90,100,-122.5,122.5,122.5,,65,70,-77.5,,70,120,135,150,,150,342.5,1,USA,SBD
Valeriy Bystrov,71,M,M_MR_7_APF,Raw,97.8,100,-190,195,205,205,,110,115,-120,,115,190,205,-215,,205,525,1,Russia,SBD
Ian Scott,75,M,M_MR_8_APF,Raw,79.6,82.5,-85,-85,-85,,,,,,,,,,,,,,DQ,USA,SBD
Alexander Chertushkin,15,M,M_TR_1_APF,Raw,55,56,45,55,65,65,,45,-52.5,-52.5,,45,45,55,70,,70,180,1,Russia,SBD
Tristan Cianni,15,M,M_TR_1_APF,Raw,66.4,67.5,135,145,-155,145,,70,77.5,-82.5,,77.5,150,160,-167.5,,160,382.5,1,Germany,SBD
Garrett Kelso,16,M,M_TR_2_APF,Raw,54.2,56,90,102.5,-110,102.5,,47.5,55,-62.5,,55,-125,125,140,,140,297.5,1,USA,SBD
Artem Zelenin,16,M,M_TR_2_APF,Raw,62.4,67.5,85,95,-100,95,,95,102.5,107.5,,107.5,85,100,-115,,100,302.5,1,Russia,SBD
Gergő Vakarcs,16,M,M_TR_2_APF,Raw,84.6,90,180,-200,-200,180,,140,145,150,-155,150,190,200,-225,,200,530,1,Hungary,SBD
John Marsh,19,M,M_TR_3_APF,Raw,54.8,56,-105,115,-125,115,,50,60,-62.5,,60,140,147.5,150,160,150,325,1,Canada,SBD
Jacob Sheperd,18,M,M_TR_3_APF,Raw,66.8,67.5,72.5,-82.5,,72.5,,-92.5,-105,-105,,,-115,,,,,,DQ,USA,SBD
Wei Seah,19,M,M_TR_3_APF,Raw,74,75,177.5,190,200,200,,105,-112.5,-112.5,,105,240,255,-265,,255,560,1,Canada,SBD
Daniel Acosta,19,M,M_TR_3_APF,Raw,113.6,125,235,-250,250,250,,170,182.5,-190,,182.5,280,-300,-300,,280,712.5,1,Germany,SBD
Tomass Rihards Čaps,12,M,M_YR_APF,Raw,70.4,75,100,-105,110,110,,55,60,-62.5,,60,120,130,140,,140,310,1,Latvia,SBD
Bethani Duncan,20,F,F_JEM_APF,Multi-ply,66.2,67.5,145,157.5,-165,157.5,,87.5,97.5,-105,,97.5,142.5,155,165,,165,420,1,USA,SBD
Tara Webber,22,F,F_JEM_APF,Multi-ply,75,75,-240,-240,-240,,,,,,,,,,,,,,DQ,Canada,SBD
Darilyn Doddy,22,F,F_JEM_APF,Multi-ply,73.6,75,-215,220,-230,220,,177.5,-182.5,-185,,177.5,160,-172.5,-172.5,,160,557.5,1,USA,SBD
Dawn Hickman,44,F,F_MEM_1_APF,Multi-ply,46,48,147.5,-157.5,-157.5,147.5,,80,-90,-90,,80,125,-135,137.5,,137.5,365,1,USA,SBD
Liz Nesuda,43,F,F_MEM_1_APF,Multi-ply,58.8,60,30,,,30,,45,57.5,60,,60,85,,,,85,175,1,USA,SBD
Daniella Scozzi,44,F,F_MEM_1_APF,Multi-ply,66.2,67.5,150,162.5,172.5,172.5,,-80,-80,-80,,,,,,,,,DQ,UK,SBD
Amanda DuVall,43,F,F_MEM_1_APF,Multi-ply,68.4,75,202.5,215,-227.5,215,,-135,-142.5,-142.5,,,,,,,,,DQ,USA,SBD
Tania George,42,F,F_MEM_1_APF,Multi-ply,73.6,75,-160,160,-175,160,,110,115,120,,120,160,175,185,,185,465,1,UK,SBD
Emma Ylitalo-James,42,F,F_MES_1_APF,Single-ply,86.4,90,60,,,60,,192.5,-200,-202.5,,192.5,140,160,180,,180,432.5,1,UK,SBD
Chantal Rostagnat,45,F,F_MEM_2_APF,Multi-ply,65.2,67.5,137.5,-147.5,-147.5,137.5,,55,70,-80,,70,100,,,,100,307.5,1,France,SBD
Lynn Barlow,53,F,F_MEM_3_APF,Multi-ply,46.2,48,110,-122.5,-122.5,110,,70,-80,-80,,70,110,122.5,-132.5,,122.5,302.5,1,USA,SBD
Susan Rinn,50,F,F_MEM_3_APF,Multi-ply,52.6,56,-127.5,127.5,142.5,142.5,,75,82.5,-85,,82.5,115,125,137.5,,137.5,362.5,1,USA,SBD
Terry Bishoff,53,F,F_MEM_3_APF,Multi-ply,59,60,-142.5,-142.5,-142.5,,,,,,,,,,,,,,DQ,USA,SBD
Debbie Damminga,51,F,F_MEM_3_APF,Multi-ply,71.6,75,195,-205,,195,,115,-122.5,-122.5,,115,125,137.5,172.5,-190,172.5,482.5,1,USA,SBD
Hanne Bingle,53,F,F_MEM_3_APF,Multi-ply,75,75,125,140,-160,140,,80,87.5,95,,95,130,140,-150,,140,375,2,UK,SBD
Stephanie van de Weghe,51,F,F_MEM_3_APF,Multi-ply,78.6,82.5,250,272.5,,272.5,,115,160,-170,,160,182.5,195,,,195,627.5,1,USA,SBD
Paula Collins,56,F,F_MEM_4_APF,Multi-ply,65.4,67.5,167.5,-175,175,175,,-85,85,-90,,85,150,157.5,-160,,157.5,417.5,1,USA,SBD
Jane Stabile,59,F,F_MEM_4_APF,Multi-ply,73.2,75,167.5,-177.5,177.5,177.5,,87.5,-92.5,-92.5,,87.5,-157.5,-170,170,,170,435,1,USA,SBD
Nora Langdon,70,F,F_MEM_7_APF,Multi-ply,84.8,90,157.5,170,-175,170,,65,70,75,80,75,147.5,160,165,,165,410,1,USA,SBD
Dawn Hickman,44,F,F_OEM_APF,Multi-ply,46,48,147.5,-157.5,-157.5,147.5,,80,-90,-90,,80,125,-135,137.5,,137.5,365,1,USA,SBD
Hanne Bingle,53,F,F_OEM_APF,Multi-ply,75,75,125,140,-160,140,,80,87.5,95,,95,130,140,-150,,140,375,1,UK,SBD
Ann Vanderbush,27,F,F_OEM_APF,Multi-ply,80.4,82.5,240,-257.5,,240,,150,165,-170,,165,215,227.5,240,,240,645,1,USA,SBD
Stephanie van de Weghe,51,F,F_OEM_APF,Multi-ply,78.6,82.5,250,272.5,,272.5,,115,160,-170,,160,182.5,195,,,195,627.5,2,USA,SBD
Krista Ford,45,F,F_OEM_APF,Multi-ply,88.6,90,242.5,267.5,280,280,,110,115,120,,120,197.5,205,210,,210,610,1,USA,SBD
Joey Taylor,21,M,M_JR_APF,Raw,54.8,56,120,-132.5,-132.5,120,,102.5,110,-115,,110,165,177.5,182.5,190,182.5,412.5,1,USA,SBD
Daniel Lee,20,M,M_JR_APF,Raw,60.4,67.5,155,-162.5,162.5,162.5,,102.5,-107.5,,,102.5,180,185,190,,190,455,1,Canada,SBD
Jack Chambers,20,M,M_JR_APF,Raw,75,75,-170,170,-200,170,,115,122.5,127.5,,127.5,210,-230,-230,,210,507.5,1,UK,SBD
Beasty Tuilagi,21,M,M_JR_APF,Raw,79.6,82.5,165,175,-185,175,,160,-170,-170,,160,260,270,-280,,270,605,1,UK,SBD
Yerlan Alkeyev,23,M,M_JR_APF,Raw,81,82.5,-210,-210,210,210,,170,185,-195,,185,180,210,-222.5,,210,605,2,Kazakhstan,SBD
Cody Buchenauer,21,M,M_JR_APF,Raw,87.6,90,235,245,-250,245,,140,-145,,,140,260,280,-290,,280,665,1,Canada,SBD
Kevin Mark Smith,23,M,M_JR_APF,Raw,88.4,90,-175,175,-190,175,,130,137.5,-142.5,,137.5,225,240,-250,,240,552.5,2,UK,SBD
Felipe Salas,23,M,M_JR_APF,Raw,85,90,160,182.5,-212.5,182.5,,127.5,145,150,,150,182.5,205,-227.5,,205,537.5,3,USA,SBD
Sergey Lir,21,M,M_JR_APF,Raw,99.2,100,-250,-250,250,250,,200,-210,210,,210,250,265,-275,,265,725,1,Russia,SBD
Joseph Sonntag,22,M,M_JR_APF,Raw,96.2,100,257.5,-267.5,-267.5,257.5,,-167.5,167.5,-172.5,,167.5,280,,,,280,705,2,USA,SBD
Kevin Lutz,20,M,M_JR_APF,Raw,99.2,100,205,215,-227.5,215,,150,-160,-160,,150,205,220,232.5,,232.5,597.5,3,Canada,SBD
Liro Jokipalo,21,M,M_JR_APF,Raw,101.8,110,230,247.5,260,260,,140,152.5,-160,,152.5,230,250,260,,260,672.5,1,Finland,SBD
Nikolay Iov,22,M,M_JR_APF,Raw,120.6,125,220,240,-255,240,,170,185,-195,,185,230,255,,,255,680,1,Russia,SBD
Mikhail Manukov,23,M,M_JR_APF,Raw,130.4,140,-290,300,305,305,,180,190,,,190,300,-310,310,,310,805,1,Russia,SBD
Pavol Balážik,33,M,M_OR_APF,Raw,52,52,-90,90,100,100,-105,80,85,87.5,90,87.5,132.5,142.5,150,-155,150,337.5,1,Slovakia,SBD
Alexandre Bras,35,M,M_OR_APF,Raw,55.6,56,110,120,-125,120,,60,-70,-70,,60,130,150,-160,,150,330,1,Portugal,SBD
Simon Rabbe,24,M,M_OR_APF,Raw,64.5,67.5,-140,140,-155,140,,90,-100,-100,,90,190,-202.5,-202.5,,190,420,1,France,SBD
Reno Karkuschke,44,M,M_OR_APF,Raw,66,67.5,92.5,102.5,-115,102.5,,90,97.5,-100,,97.5,125,135,140,,140,340,2,Germany,SBD
Marochko Stanislav,30,M,M_OR_APF,Raw,72.4,75,170,180,190,190,,125,130,135,,135,200,215,-225,,215,540,1,,SBD
Bruno Almeida,31,M,M_OR_APF,Raw,72,75,135,150,-160,150,,90,-97.5,-97.5,,90,150,180,-190,,180,420,2,Portugal,SBD
Yerlan Alkeyev,23,M,M_OR_APF,Raw,81,82.5,-210,-210,210,210,,170,185,-195,,185,180,210,-222.5,,210,605,1,Kazakhstan,SBD
Diego Figueroa,27,M,M_OR_APF,Raw,79.6,82.5,190,-205,205,205,,137.5,-145,-155,,137.5,190,205,227.5,,227.5,570,2,Brazil,SBD
Glen Smith,26,M,M_OR_APF,Raw,81.6,82.5,145,-165,-165,145,,115,125,-130,,125,200,220,-235,,220,490,3,UK,SBD
Alexey Bazhenov,35,M,M_OR_APF,Raw,88.6,90,240,-250,250,250,,177.5,187.5,192.5,,192.5,275,290,302.5,,302.5,745,1,Russia,SBD
Da'Mon Mayers,31,M,M_OR_APF,Raw,88.6,90,240,255,-267.5,255,,150,160,-165,,160,287.5,315,-325,,315,730,2,USA,SBD
Sergey Lukyanov,26,M,M_OR_APF,Raw,90,90,240,255,265,265,,145,,,,145,290,315,-330,,315,725,3,Russia,SBD
Stefan Oesterle,30,M,M_OR_APF,Raw,87.2,90,200,230,240,240,,190,-205,-205,,190,270,290,-305,,290,720,4,Germany,SBD
Volodymyr Starchenko,37,M,M_OR_APF,Raw,89.4,90,220,230,235,235,,145,152.5,155,,155,250,-260,-265,,250,640,5,Ukraine,SBD
Jay Grayauskie,29,M,M_OR_APF,Raw,89,90,160,180,185,185,,-137.5,137.5,140,,140,237.5,255,-260,,255,580,6,USA,SBD
Aliyev Giraffe,,M,M_OR_APF,Raw,87.4,90,150,160,-165,160,,100,-107.5,,,100,195,205,212.5,,212.5,472.5,7,Azerbaijan,SBD
Oleksii Omelchenko,33,M,M_OR_APF,Raw,99.8,100,220,235,245,245,,170,185,190,,190,337.5,352.5,357.5,372.5,357.5,792.5,1,Ukraine,SBD
Mykhailo Zheliazkov,32,M,M_OR_APF,Raw,97.4,100,265,275,285,285,,175,185,-190,,185,300,315,320,,320,790,2,Ukraine,SBD
Cardell Oliver,34,M,M_OR_APF,Raw,97.8,100,232.5,-252.5,-257.5,232.5,,185,-195,-195,,185,280,300,310,,310,727.5,3,USA,SBD
Jason Argue,31,M,M_OR_APF,Raw,98.6,100,240,-260,260,260,,150,-170,-170,,150,280,300,-315,,300,710,4,Canada,SBD
Joseph Sonntag,22,M,M_OR_APF,Raw,96.2,100,257.5,-267.5,-267.5,257.5,,-167.5,167.5,-172.5,,167.5,280,,,,280,705,5,USA,SBD
Jamie Caporosso,40,M,M_OR_APF,Raw,94.4,100,197.5,207.5,215,215,,167.5,175,182.5,,182.5,250,-262.5,-262.5,,250,647.5,6,USA,SBD
Martin Kostlán,25,M,M_OR_APF,Raw,92.4,100,200,210,220,220,,145,150,-155,,150,240,255,-262.5,,255,625,7,Czechia,SBD
Azer Aliyev,26,M,M_OR_APF,Raw,97.2,100,210,220,-225,220,,-145,145,-155,,145,230,242.5,-250,,242.5,607.5,8,Azerbaijan,SBD
Lukes Masar,24,M,M_OR_APF,Raw,108.6,110,-220,-220,-220,,,,,,,,,,,,,,DQ,,SBD
Nokolai Fesanuik,,M,M_OR_APF,Raw,107.8,110,300,330,350,350,,180,190,195,,195,320,340,-360,,340,885,1,,SBD
Ramiz Mirzayev,32,M,M_OR_APF,Raw,108,110,260,275,290,290,,150,160,165,,165,270,290,300,,300,755,2,Kazakhstan,SBD
Brad Cutler,29,M,M_OR_APF,Raw,104.4,110,220,242.5,,242.5,,145,-150,,,145,320,,-350,,320,707.5,3,UK,SBD
Ville Suominen,30,M,M_OR_APF,Raw,103.4,110,215,225,232.5,232.5,,160,170,175,,175,260,272.5,-282.5,,272.5,680,4,Finland,SBD
Mauro Spinardi,32,M,M_OR_APF,Raw,124.2,125,317.5,-335,335,335,,217.5,230,-235,,230,315,325,335,,335,900,1,Argentina,SBD
Kevin Smith #3,34,M,M_OR_APF,Raw,124,125,-312.5,-312.5,312.5,312.5,,185,202.5,-210,,202.5,307.5,325,-332.5,,325,840,2,USA,SBD
Dmitry Smirnov,33,M,M_OR_APF,Raw,121.2,125,250,260,-270,260,,190,200,-205,,200,290,300,-305,,300,760,3,Russia,SBD
Victor Klimov,37,M,M_OR_APF,Raw,116.4,125,240,250,,250,,-190,190,-200,,190,290,300,,,300,740,4,Russia,SBD
Sergey Daragan,33,M,M_OR_APF,Raw,127.5,140,280,300,-307.5,300,,200,-212.5,212.5,,212.5,350,370,382.5,,382.5,895,1,Russia,SBD
Zsolt Makovics,36,M,M_OR_APF,Raw,133,140,300,310,325,325,,190,200,210,,210,290,305,-315,,305,840,2,Hungary,SBD
Alexey Pissarevskiy,25,M,M_OR_APF,Raw,133.4,140,270,280,-290,280,,240,245,-250,,245,270,280,290,,290,815,3,Kazakhstan,SBD
Michael Sommer,24,M,M_OR_APF,Raw,139.4,140,300,-315,,300,,210,215,220,,220,270,290,-297.5,,290,810,4,Germany,SBD
Russell DiNaro,26,M,M_OR_APF,Raw,126.4,140,202.5,220,-237.5,220,,150,-165,165,,165,210,235,-252.5,,235,620,5,USA,SBD
Sergey Rubtsov,48,M,M_OR_APF,Raw,155.4,140+,240,,,240,,150,,,,150,200,,,,200,590,1,Russia,SBD
Kallye Harris,15,F,F_TEM_1_APF,Multi-ply,57.8,60,100,110,-117.5,110,,55,-65,65,,65,127.5,137.5,-145,,137.5,312.5,1,USA,SBD
Keana Hogan,15,F,F_TEM_1_APF,Multi-ply,59,60,95,105,112.5,112.5,,47.5,52.5,-60,,52.5,102.5,110,117.5,,117.5,282.5,2,USA,SBD
Blythe Ferguson,15,F,F_TEM_1_APF,Multi-ply,97.2,90+,150,165,172.5,172.5,177.5,85,92.5,97.5,-102.5,97.5,147.5,157.5,165,172.5,165,435,1,USA,SBD
Makaley Harper,17,F,F_TEM_2_APF,Multi-ply,47.6,48,105,-112.5,-112.5,105,,57.5,62.5,-65,,62.5,125,132.5,140,145,140,307.5,1,USA,SBD
Alejandra Avila,16,F,F_TEM_2_APF,Multi-ply,50.4,52,-137.5,-137.5,-137.5,,,,,,,,,,,,,,DQ,USA,SBD
Kayla Louque,17,F,F_TEM_2_APF,Multi-ply,59.4,60,-110,110,-120,110,,52.5,57.5,-60,,57.5,115,125,,,125,292.5,1,USA,SBD
Crystal Ballin,16,F,F_TEM_2_APF,Multi-ply,65.8,67.5,132.5,142.5,150,150,,62.5,-70,70,,70,132.5,145,155,,155,375,1,USA,SBD
Tiffany Stephens,17,F,F_TEM_2_APF,Multi-ply,71.6,75,67.5,70,85,85,,42.5,50,-60,,50,87.5,100,-110,,100,235,1,USA,SBD
Victoria Wilson,17,F,F_TEM_2_APF,Multi-ply,84.8,90,-110,137.5,167.5,167.5,,-70,-70,70,,70,150,162.5,-172.5,,162.5,400,1,USA,SBD
Ricki Calvert,19,F,F_TEM_3_APF,Multi-ply,59.2,60,-142.5,142.5,150,150,,72.5,77.5,80,,80,142.5,147.5,-150,,147.5,377.5,1,USA,SBD
Kaitlyn Bernard,18,F,F_TEM_3_APF,Multi-ply,66.6,67.5,117.5,-127.5,127.5,127.5,,-90,90,97.5,-102.5,97.5,117.5,127.5,-137.5,,127.5,352.5,1,USA,SBD
Maygan Crossin,19,F,F_TEM_3_APF,Multi-ply,71.6,75,150,165,172.5,172.5,,92.5,-102.5,102.5,,102.5,150,160,170,,170,445,1,USA,SBD
Khadisha Hill,19,F,F_TEM_3_APF,Multi-ply,78.4,82.5,130,-137.5,-137.5,130,,72.5,80,-87.5,,80,137.5,-142.5,142.5,,142.5,352.5,1,USA,SBD
Anna McCloskey,19,F,F_TEM_3_APF,Multi-ply,88.4,90,-237.5,-237.5,-237.5,,,,,,,,,,,,,,DQ,USA,SBD
Ashton Chatlain,19,F,F_TEM_3_APF,Multi-ply,149.2,90+,-290,-290,-290,,,,,,,,,,,,,,DQ,USA,SBD
Alexis Wascom,18,F,F_TEM_3_APF,Multi-ply,107.4,90+,-195,200,-212.5,200,,112.5,-120,-120,,112.5,175,185,-195,,185,497.5,1,USA,SBD
Merat Tafreshi,21,M,M_JEM_APF,Multi-ply,71,75,-225,-225,-225,,,,,,,,,,,,,,DQ,UK,SBD
Mitchell Deskis,21,M,M_JEM_APF,Multi-ply,73.8,75,195,217.5,240,240,,137.5,152.5,-157.5,,152.5,240,265,-280,,265,657.5,1,USA,SBD
Frazer Munnery,21,M,M_JEM_APF,Multi-ply,74.8,75,-245,245,-265,245,,145,157.5,165,,165,225,235,-255,,235,645,2,UK,SBD
Kody Presswood,22,M,M_JEM_APF,Multi-ply,81.8,82.5,-320,-320,320,320,,237.5,-250,-250,,237.5,217.5,240,255,,255,812.5,1,USA,SBD
Robert Johnson,20,M,M_JEM_APF,Multi-ply,81.4,82.5,257.5,272.5,-277.5,272.5,,140,147.5,155,,155,257.5,280,290,,290,717.5,2,USA,SBD
Kalle Räsänen,22,M,M_JEM_APF,Multi-ply,89.8,90,-330,-330,-330,,,,,,,,,,,,,,DQ,Finland,SBD
Tommy Block,22,M,M_JEM_APF,Multi-ply,89,90,-365,-365,365,365,,-230,-230,-230,,,,,,,,,DQ,USA,SBD
Dillon Kotz,22,M,M_JEM_APF,Multi-ply,87.4,90,260,-282.5,282.5,282.5,,185,210,-227.5,,210,182.5,227.5,-242.5,,227.5,720,1,USA,SBD
Diogo Acurcio,21,M,M_JEM_APF,Multi-ply,87,90,230,-245,-245,230,,140,150,-155,,150,-190,190,220,,220,600,2,Portugal,SBD
Jacob Whately,21,M,M_JEM_APF,Multi-ply,98.4,100,-265,-272.5,-272.5,,,,,,,,,,,,,,DQ,USA,SBD
Hafiz Verdiyev,22,M,M_JEM_APF,Multi-ply,96.6,100,350,365,375,375,,235,-242.5,242.5,,242.5,300,325,330,,330,947.5,1,Azerbaijan,SBD
Marcus Heuer,20,M,M_JEM_APF,Multi-ply,98.8,100,330,362.5,,362.5,,240,260,270,,270,280,310,315,,315,947.5,2,Germany,SBD
Nick Harris,21,M,M_JEM_APF,Multi-ply,95.6,100,327.5,340,-357.5,340,,242.5,262.5,-272.5,,262.5,247.5,-262.5,262.5,,262.5,865,3,USA,SBD
Jan Jíša,23,M,M_JEM_APF,Multi-ply,97.8,100,290,-310,,290,,-190,190,200,,200,250,-270,,,250,740,4,Czechia,SBD
Teemu Haverinen,21,M,M_JEM_APF,Multi-ply,110,110,-390,-390,-390,,,,,,,,,,,,,,DQ,Finland,SBD
Rhys Browning,22,M,M_JEM_APF,Multi-ply,108.2,110,-300,-300,-300,,,,,,,,,,,,,,DQ,UK,SBD
Oskari Lehtinen,23,M,M_JEM_APF,Multi-ply,108.6,110,-395,395,-402.5,395,,270,277.5,-285,,277.5,300,-310,-310,,300,972.5,1,Finland,SBD
Oleg Gevko,21,M,M_JEM_APF,Multi-ply,116,125,360,400,-415,400,,210,225,-230,,225,275,285,300,,300,925,1,Russia,SBD
Facundo Soria,21,M,M_JEM_APF,Multi-ply,111.8,125,-300,300,325,325,,-225,230,240,,240,290,310,-320,,310,875,2,Argentina,SBD
Reno Karkuschke,44,M,M_MEM_1_APF,Multi-ply,66.6,67.5,120,142.5,152.5,152.5,,110,117.5,-120,,117.5,130,152.5,,,152.5,422.5,1,Germany,SBD
Shahram Forutan,44,M,M_MEM_1_APF,Multi-ply,74.6,75,225,240,-255,240,,-150,150,,,150,170,190,210,,210,600,1,Germany,SBD
Gennady Bogdanov,43,M,M_MEM_1_APF,Multi-ply,81.4,82.5,230,250,280,280,,190,200,,,200,230,260,280,,280,760,1,Russia,SBD
Eric Athias,41,M,M_MEM_1_APF,Multi-ply,87.2,90,305,-330,-330,305,,-190,-210,210,,210,275,305,315,-327.5,315,830,1,France,SBD
Alex Ortiz,42,M,M_MEM_1_APF,Multi-ply,89,90,310,-325,325,325,,230,-237.5,237.5,,237.5,230,-252.5,-272.5,,230,792.5,2,USA,SBD
Charlie Morse,46,M,M_MEM_2_APF,Multi-ply,73,75,235,-260,,235,,-147.5,147.5,155,,155,192.5,-205,-205,,192.5,582.5,1,USA,SBD
John Fukuda,48,M,M_MEM_2_APF,Multi-ply,79.4,82.5,227.5,-272.5,272.5,272.5,,147.5,-182.5,-182.5,,147.5,192.5,220,240,,240,660,1,USA,SBD
Mike Deskis,53,M,M_MEM_3_APF,Multi-ply,66,67.5,182.5,-200,200,200,,105,110,-117.5,,110,240,255,262.5,270,262.5,572.5,1,USA,SBD
Wayne Pullum,53,M,M_MEM_3_APF,Multi-ply,73.8,75,230,-250,,230,,-162.5,,,,,,,,,,,DQ,USA,SBD
Gary Reichert,52,M,M_MEM_3_APF,Multi-ply,74.8,75,195,215,-230,215,,-142.5,142.5,-152.5,,142.5,240,-262.5,-262.5,,240,597.5,1,USA,SBD
Lupe Coronado,52,M,M_MEM_3_APF,Multi-ply,74.4,75,220,-235,-235,220,,155,165,-170,,165,210,-232.5,-232.5,,210,595,2,USA,SBD
Bob Benedix,52,M,M_MEM_3_APF,Multi-ply,81.8,82.5,290,310,-325,310,,135,147.5,-155,,147.5,235,250,260,,260,717.5,1,USA,SBD
Yong-Soo Lee,50,M,M_MEM_3_APF,Multi-ply,79.8,82.5,240,260,270,270,,160,170,175,,175,210,220,-230,,220,665,2,South Korea,SBD
Michael Larsen,53,M,M_MEM_3_APF,Multi-ply,80.6,82.5,165,-175,-182.5,165,,80,,,,80,167.5,175,182.5,,182.5,427.5,3,USA,SBD
Tony Tomra,50,M,M_MEM_3_APF,Multi-ply,89.8,90,310,-330,,310,,-230,-230,230,,230,230,245,-255,,245,785,1,Canada,SBD
Randy Nesuda,52,M,M_MEM_3_APF,Multi-ply,89.4,90,227.5,250,-272.5,250,,102.5,-135,-135,,102.5,205,227.5,250,,250,602.5,2,USA,SBD
Alan Cayer,56,M,M_MEM_4_APF,Multi-ply,75,75,-300,-300,300,300,,172.5,190,197.5,-202.5,197.5,260,282.5,295,,295,792.5,1,USA,SBD
Calin Eschenasy,56,M,M_MEM_4_APF,Multi-ply,74.2,75,180,,-230,180,,120,,,,120,180,200,-227.5,,200,500,2,Germany,SBD
Mike Steck,56,M,M_MEM_4_APF,Multi-ply,88.8,90,-285,-285,-285,,,,,,,,,,,,,,DQ,USA,SBD
Gary Bobrovitz,60,M,M_MEM_5_APF,Multi-ply,64.6,67.5,-172.5,-172.5,-172.5,,,,,,,,,,,,,,DQ,Canada,SBD
Jim Ambrose,61,M,M_MEM_5_APF,Multi-ply,71.6,75,170,-180,180,180,,120,127.5,130,,130,200,-220,220,,220,530,1,Australia,SBD
Dennis Pittman,62,M,M_MEM_5_APF,Multi-ply,80.6,82.5,-207.5,207.5,227.5,227.5,,122.5,-140,140,,140,195,220,227.5,,227.5,595,1,USA,SBD
Rudy Kadlub,63,M,M_MEM_5_APF,Multi-ply,90,90,-250,-250,-250,,,,,,,,,,,,,,DQ,USA,SBD
Gun-Hoi Koo,66,M,M_MEM_6_APF,Multi-ply,59.8,60,140,155,-160,155,,70,75,,,75,150,160,170,,170,400,1,South Korea,SBD
Evgeny Khudoleev,66,M,M_MEM_6_APF,Multi-ply,89.2,90,200,220,-240,220,,170,-180,180,,180,200,220,240,,240,640,1,Russia,SBD
Aimo Mursu,70,M,M_MEM_7_APF,Multi-ply,81.2,82.5,180,200,-227.5,200,,-75,75,-90,,75,170,190,-210,,190,465,1,Finland,SBD
Shawn Ray,16,M,M_TEM_2_APF,Multi-ply,51,52,-165,-165,165,165,,-97.5,-97.5,-97.5,,,,,,,,,DQ,USA,SBD
Garrett Kelso,16,M,M_TEM_2_APF,Multi-ply,53.2,56,115,122.5,140,140,,-60,60,67.5,,67.5,137.5,147.5,157.5,,157.5,365,1,USA,SBD
Sebastian Eschenasy,17,M,M_TEM_2_APF,Multi-ply,64,67.5,140,165,-172.5,165,,90,-102.5,-102.5,,90,140,160,-170,,160,415,1,USA,SBD
Stephen Lehew,17,M,M_TES_2_APF,Single-ply,73.8,75,217.5,227.5,,227.5,,142.5,-167.5,-172.5,,142.5,195,207.5,217.5,,217.5,587.5,1,USA,SBD
Troy Angelo,16,M,M_TEM_2_APF,Multi-ply,78.2,82.5,187.5,-205,-212.5,187.5,,110,120,-130,,120,215,-235,245,,245,552.5,1,USA,SBD
Max Reichert,16,M,M_TEM_2_APF,Multi-ply,98.2,100,195,207.5,222.5,222.5,,142.5,152.5,162.5,,162.5,210,227.5,-232.5,,227.5,612.5,1,USA,SBD
Caleb Smith,16,M,M_TEM_2_APF,Multi-ply,151.4,140+,182.5,205,227.5,227.5,,-162.5,162.5,165,,165,142.5,165,182.5,,182.5,575,1,USA,SBD
Austin Simmons,19,M,M_TEM_3_APF,Multi-ply,73.2,75,272.5,292.5,300,300,,215,-232.5,-232.5,,215,212.5,242.5,-250,,242.5,757.5,1,USA,SBD
Thomas Willis,18,M,M_TEM_3_APF,Multi-ply,79.2,82.5,210,-227.5,-227.5,210,,127.5,-137.5,-137.5,,127.5,227.5,-245,-245,,227.5,565,1,USA,SBD
Nigel Clark,18,M,M_TEM_3_APF,Multi-ply,79.2,82.5,-205,205,-217.5,205,,130,-140,-140,,130,205,-230,-230,,205,540,2,USA,SBD
John Caruso,19,M,M_TEM_3_APF,Multi-ply,120.2,125,200,230,240,240,,257.5,272.5,-285,,272.5,250,-272.5,277.5,,277.5,790,1,USA,SBD
Nate McCoole,18,M,M_TEM_3_APF,Multi-ply,138.8,140,-365,-365,365,365,,-280,-280,-280,,,,,,,,,DQ,USA,SBD
Hunter Angelo,12,M,M_YEM_APF,Multi-ply,42.8,52,55,65,72.5,72.5,,32.5,-37.5,-37.5,,32.5,80,90,97.5,,97.5,202.5,1,USA,SBD
Victor Davila,12,M,M_YEM_APF,Multi-ply,44,52,-52.5,52.5,60,60,,27.5,-35,-35,,27.5,67.5,75,80,,80,167.5,2,USA,SBD
Tomass Rihards Čaps,12,M,M_YEM_APF,Multi-ply,71,75,140,150,160,160,,55,75,-80,,75,130,140,145,,145,380,1,Latvia,SBD
Shane Ratcliff,12,M,M_YEM_APF,Multi-ply,90,90,87.5,92.5,97.5,97.5,,-52.5,52.5,60,,60,82.5,95,105,,105,262.5,1,USA,SBD
Andrey Sizov,44,M,M_MEM_1_APF,Multi-ply,95.2,100,325,350,365,365,,190,200,210,,210,315,330,350,,350,925,1,Russia,SBD
Raymond Pierce,40,M,M_MEM_1_APF,Multi-ply,108.2,110,-337.5,-337.5,337.5,337.5,,275,-300,300,,300,275,292.5,307.5,,307.5,945,1,USA,SBD
Anthony Giddings,40,M,M_MEM_1_APF,Multi-ply,105.4,110,-300,320,-360,320,,190,-200,-202.5,,190,270,295,-305,,295,805,2,UK,SBD
Scott Johnson,44,M,M_MEM_1_APF,Multi-ply,108.6,110,-305,-305,305,305,,-195,195,-227.5,,195,250,-260,-260,,250,750,3,USA,SBD
Joe Norman,44,M,M_MEM_1_APF,Multi-ply,116.8,125,-365,365,,365,,282.5,-322.5,-322.5,,282.5,227.5,250,,,250,897.5,1,USA,SBD
Tony Chard,44,M,M_MEM_1_APF,Multi-ply,115.4,125,240,-260,260,260,,195,205,-212.5,,205,260,300,310,,310,775,2,France,SBD
Mike Webber,42,M,M_MEM_1_APF,Multi-ply,134.4,140,-345,345,415,415,,-287.5,-287.5,287.5,,287.5,250,282.5,-300,,282.5,985,1,Canada,SBD
Alan Borden,44,M,M_MEM_1_APF,Multi-ply,127,140,-290,290,-327.5,290,,25,,,,25,62.5,,,,62.5,377.5,2,USA,SBD
Prince Kennedy,48,M,M_MEM_2_APF,Multi-ply,82.5,82.5,180,200,220,220,,120,130,145,-165,145,200,210,220,240,220,585,1,Niger,SBD
Henry Fletcher,49,M,M_MEM_2_APF,Multi-ply,97.4,100,-352.5,-352.5,-352.5,,,,,,,,,,,,,,DQ,USA,SBD
Dmitry Chertushkin,47,M,M_MEM_2_APF,Multi-ply,98,100,230,245,-252.5,245,,180,195,210,,210,210,220,230,,230,685,1,Russia,SBD
Tony Butson,47,M,M_MEM_2_APF,Multi-ply,106.6,110,-265,-282.5,-282.5,,,,,,,,,,,,,,DQ,USA,SBD
Brian Johnston,47,M,M_MEM_2_APF,Multi-ply,102.8,110,-330,-330,-350,,,,,,,,,,,,,,DQ,Canada,SBD
Milton Schneider,46,M,M_MEM_2_APF,Multi-ply,107.2,110,-352.5,-352.5,-352.5,,,,,,,,,,,,,,DQ,USA,SBD
Kjell Nyhagebråten,46,M,M_MEM_2_APF,Multi-ply,104.6,110,-380,-380,-380,,,,,,,,,,,,,,DQ,Norway,SBD
Rocky Tilson,49,M,M_MEM_2_APF,Multi-ply,117.8,125,185,252.5,-282.5,252.5,,25,,,,25,185,,,,185,462.5,1,USA,SBD
Scott Edmiston,40,M,M_MEM_1_APF,Multi-ply,129,140,330,-350,350,350,,245,260,-272.5,,260,-290,290,-300,,290,900,1,Canada,SBD
Jean Louis Dalmasso,54,M,M_MEM_3_APF,Multi-ply,97,100,205,222.5,235,235,,-150,-150,-150,,,,,,,,,DQ,France,SBD
Clint Medford,52,M,M_MEM_3_APF,Multi-ply,99.6,100,320,350,-365,350,,-220,-227.5,227.5,,227.5,-270,287.5,300,,300,877.5,1,USA,SBD
John Hare,51,M,M_MEM_3_APF,Multi-ply,97.4,100,295,-340,340,340,,160,-230,240,,240,240,265,-285,,265,845,2,USA,SBD
Mark Ironfield,50,M,M_MEM_3_APF,Multi-ply,99.2,100,-327.5,327.5,-367.5,327.5,,-195,195,-215,,195,287.5,-305,-305,,287.5,810,3,USA,SBD
Rod Bauer,50,M,M_MEM_3_APF,Multi-ply,98.2,100,-255,255,-272.5,255,,210,-217.5,-217.5,,210,222.5,235,245,,245,710,4,USA,SBD
Mike Taylor,50,M,M_MEM_3_APF,Multi-ply,108.6,110,-377.5,-377.5,-377.5,,,,,,,,,,,,,,DQ,USA,SBD
Steve Peterson,53,M,M_MEM_3_APF,Multi-ply,123.2,125,340,-375,-392.5,340,,142.5,-250,-250,,142.5,260,272.5,,,272.5,755,1,USA,SBD
Dainis Polis,51,M,M_MEM_3_APF,Multi-ply,115.8,125,250,-300,-300,250,,-170,170,-200,,170,150,,,,150,570,2,Latvia,SBD
Bernie Ferro,58,M,M_MEM_4_APF,Multi-ply,95.6,100,235,250,260,260,,152.5,160,165,,165,227.5,240,250,,250,675,1,USA,SBD
Jeff Orr,56,M,M_MEM_4_APF,Multi-ply,93,100,165,192.5,-217.5,192.5,,105,-122.5,-122.5,,105,172.5,-202.5,-220,,172.5,470,2,USA,SBD
Larry Mistric,56,M,M_MEM_4_APF,Multi-ply,108.5,110,345,367.5,-385,367.5,,-227.5,-227.5,227.5,,227.5,252.5,275,282.5,,282.5,877.5,1,USA,SBD
Pat Roberts,55,M,M_MEM_4_APF,Multi-ply,108.6,110,302.5,-327.5,337.5,337.5,,182.5,195,202.5,,202.5,287.5,312.5,320,,320,860,2,USA,SBD
Dick Zenzen,60,M,M_MEM_5_APF,Multi-ply,105.6,110,-275,-275,275,275,,157.5,180,-197.5,,180,200,220,227.5,,227.5,682.5,1,USA,SBD
James Ellis #1,74,M,M_MEM_7_APF,Multi-ply,98,100,192.5,210,,210,,-102.5,-102.5,-102.5,,,,,,,,,DQ,USA,SBD
Marc Tejero,34,M,M_OEM_APF,Multi-ply,65.6,67.5,257.5,-272.5,272.5,272.5,,175,-187.5,-187.5,,175,235,260,-272.5,,260,707.5,1,USA,SBD
Brian Schwab,38,M,M_OEM_APF,Multi-ply,72.8,75,-350,350,-365,350,,-265,-265,-265,,,,,,,,,DQ,USA,SBD
Vasily Tsvetkov,31,M,M_OEM_APF,Multi-ply,75,75,275,295,310,310,,-190,190,205,,205,230,255,270,,270,785,1,Russia,SBD
Mehrad Tafreshi,21,M,M_OEM_APF,Multi-ply,74,75,190,220,-230,220,,120,-135,135,,135,200,-220,-237.5,,200,555,2,UK,SBD
Louis Ruiz,36,M,M_OEM_APF,Multi-ply,81,82.5,-202.5,-202.5,202.5,202.5,,-175,175,182.5,,182.5,182.5,-197.5,-197.5,,182.5,567.5,1,USA,SBD
Hasasn Zaid,25,M,M_OEM_APF,Multi-ply,88,90,310,-330,-330,310,,-190,-200,-205,,,,,,,,,DQ,UK,SBD
Maxim Piskunov,30,M,M_OEM_APF,Multi-ply,88.6,90,375,390,-400,390,,235,245,-250,,245,300,-315,-315,,300,935,1,Russia,SBD
Curtis Arnold,23,M,M_OEM_APF,Multi-ply,87.6,90,-327.5,327.5,-365,327.5,,-250,250,-275,,250,275,-310,,,275,852.5,2,UK,SBD
Ted Toalston,34,M,M_OEM_APF,Multi-ply,87.8,90,-320,320,-332.5,320,,25,217.5,-230,,217.5,272.5,295,-317.5,,295,832.5,3,USA,SBD
Brent Alapa,38,M,M_OEM_APF,Multi-ply,89.4,90,-312.5,312.5,322.5,322.5,,217.5,230,-237.5,,230,-257.5,257.5,-265,,257.5,810,4,USA,SBD
Matthew Giesa,24,M,M_OEM_APF,Multi-ply,89.2,90,300,320,-330,320,,-185,185,-195,,185,240,250,265,,265,770,5,Canada,SBD
Scott Kuderick,38,M,M_OEM_APF,Multi-ply,89.2,90,-295,295,,295,,192.5,-197.5,,,192.5,227.5,240,-265,,240,727.5,6,USA,SBD
Kalle Räsänen,22,M,M_OEM_APF,Multi-ply,93,100,310,330,-340,330,,-240,-240,,,,,,,,,,DQ,Finland,SBD
Yury Chakur,32,M,M_OEM_APF,Multi-ply,99,100,392.5,-402.5,402.5,402.5,,270,-280,280,,280,305,325,345,,345,1027.5,1,USA,SBD
Abraham Harrod,27,M,M_OEM_APF,Multi-ply,99.2,100,-390,390,412.5,412.5,,-275,282.5,-300,,282.5,292.5,312.5,-332.5,,312.5,1007.5,2,USA,SBD
Adam Pickles,30,M,M_OEM_APF,Multi-ply,99.2,100,-320,320,342.5,342.5,,210,220,227.5,,227.5,300,317.5,-330,,317.5,887.5,3,UK,SBD
Jon Collier,21,M,M_OEM_APF,Multi-ply,90.8,100,320,-340,-352.5,320,,-250,250,262.5,,262.5,-262.5,262.5,280,,280,862.5,4,USA,SBD
Ahmadov Mustafa,32,M,M_OEM_APF,Multi-ply,97.5,100,220,255,,255,,305,-315,-315,,305,200,-240,,,200,760,5,Germany,SBD
András Gadó,25,M,M_OEM_APF,Multi-ply,99.8,100,-280,290,-305,290,,190,200,210,,210,240,-255,255,,255,755,6,Hungary,SBD
Morten Andraessen,30,M,M_OEM_APF,Multi-ply,106.8,110,-360,-360,-360,,,,,,,,,,,,,,DQ,Norway,SBD
Ivars Cīrulis,35,M,M_OEM_APF,Multi-ply,108.8,110,360,-390,400,400,,260,280,300,,300,330,350,-370,,350,1050,1,Latvia,SBD
Matt Minuth,31,M,M_OEM_APF,Multi-ply,107,110,370,-390,-390,370,,350,-372.5,-387.5,,350,-307.5,307.5,-330,,307.5,1027.5,2,USA,SBD
Denis Rodyakin,24,M,M_OEM_APF,Multi-ply,107.4,110,-420,420,-435,420,,-255,-255,255,,255,312.5,-325,325,,325,1000,3,Russia,SBD
Sergey Starodubskiy,34,M,M_OEM_APF,Multi-ply,108,110,350,370,,370,,260,272.5,285,,285,310,-335,-347.5,,310,965,4,Russia,SBD
Matt Brown #2,31,M,M_OEM_APF,Multi-ply,108.8,110,337.5,-365,-375,337.5,,227.5,-242.5,-242.5,,227.5,307.5,320,-330,,320,885,5,USA,SBD
Brian Yourist,32,M,M_OEM_APF,Multi-ply,109,110,-295,295,320,320,,200,-220,-220,,200,285,300,-305,,300,820,6,USA,SBD
Rick Lawrence,,M,M_OEM_APF,Multi-ply,109.8,110,100,,,100,,272.5,-285,-285,,272.5,100,,,,100,472.5,7,USA,SBD
Jose Garcia,35,M,M_OEM_APF,Multi-ply,117.2,125,-455,455,-477.5,455,,-292.5,-292.5,-292.5,,,,,,,,,DQ,USA,SBD
Dave Hoff,24,M,M_OEM_APF,Multi-ply,122.8,125,-502.5,-502.5,-502.5,,,,,,,,,,,,,,DQ,USA,SBD
Petteri Hosio Henrik,33,M,M_OEM_APF,Multi-ply,123.2,125,360,-380,-380,360,,320,340,-360,,340,280,300,310,,310,1010,1,Finland,SBD
Greg Theriot,28,M,M_OEM_APF,Multi-ply,136,140,-420,420,-455,420,,-320,-320,-320,,,,,,,,,DQ,USA,SBD
Shawn Doyle,27,M,M_OEM_APF,Multi-ply,135.8,140,-465,465,-482.5,465,,300,325,-340,,325,320,332.5,345,,345,1135,1,USA,SBD
Charles Fay,32,M,M_OEM_APF,Multi-ply,127.8,140,432.5,-457.5,457.5,457.5,,-297.5,-297.5,297.5,,297.5,320,-337.5,-337.5,,320,1075,2,USA,SBD
Leonardo Cavaglia,36,M,M_OEM_APF,Multi-ply,137.8,140,360,-390,,360,,-255,260,-270,,260,282.5,292.5,302.5,,302.5,922.5,3,Argentina,SBD
Luis Batista,38,M,M_OEM_APF,Multi-ply,126.6,140,350,370,-390,370,,200,215,230,,230,300,310,-312.5,,310,910,4,Portugal,SBD
Scott Edmiston,49,M,M_OEM_APF,Multi-ply,129,140,330,-350,350,350,,245,260,-272.5,,260,-290,290,-300,,290,900,5,Canada,SBD
Dale Stiefel,27,M,M_OEM_APF,Multi-ply,145.4,140+,-417.5,-417.5,417.5,417.5,,-290,-290,-290,,,,,,,,,DQ,USA,SBD
Jayson McNett,32,M,M_OEM_APF,Multi-ply,151.2,140+,-442.5,-442.5,442.5,442.5,,-320,-320,-320,,,,,,,,,DQ,USA,SBD
John Ewing,32,M,M_OEM_APF,Multi-ply,147,140+,-460,-460,460,460,,-340,-345,-345,,,,,,,,,DQ,USA,SBD
Scot,,M,M_OEM_APF,Multi-ply,147.5,140+,-325,-350,-375,,,-457.5,-490,-490,,,,,,,,,DQ,USA,SBD
Phillippe Crets,36,M,M_SEM_APF,Multi-ply,147.6,140+,-405,-405,-405,,,-320,,,,,,,,,,,DQ,Belgium,SBD
