Name,BodyweightKg,Bench1Kg,Bench2Kg,Bench3Kg,Bench4Kg,Best3BenchKg,TotalKg,Event,Equipment,Sex,Division,Place
Anthony Clark,161.03,-362.87,-362.87,-365.14,,,,B,Multi-ply,M,Open,DQ
Dave Watterman,82.1,258.55,272.16,-365.14,,272.16,272.16,B,Multi-ply,M,Open,1
JM Blakley,126.55,281.23,299.37,306.18,-319.78,306.18,306.18,B,Multi-ply,M,Open,2
Frank Pfraumer,99.34,285.76,-301.64,-301.64,,285.76,285.76,B,Multi-ply,M,Open,3
George Halbert,109.77,276.69,294.84,-310.71,,294.84,294.84,B,Multi-ply,M,Open,4
Jerry Obradovich,130.18,263.08,-290.3,290.3,-299.37,290.3,290.3,B,Multi-ply,M,Open,5
J. Schick,67.13,-210.92,-215.46,-219.99,,,,B,Multi-ply,M,Open,DQ
