Place,Sex,Name,Event,Division,WeightClassKg,Equipment,BodyweightKg,Best3SquatKg,Best3BenchKg,Best3DeadliftKg,TotalKg,BirthYear
1,M,Michael Stevens,B,MR-O,100,Raw,98.7,,177.5,,177.5,1954
1,M,Bleda Elibal,B,M-M2b,56,Single-ply,53.6,,82.5,,82.5,1959
1,M,Patraic Currey,B,M-M4a,82.5,Single-ply,80.9,,150,,150,1942
1,F,Eastin Kimberly,B,F-M1a,90+,Single-ply,110.6,,122.5,,122.5,1970
1,F,Sofia Lesser,B,FR-M2a,75,Raw,72.1,,50,,50,1962
1,M,Fletcher Gibbs,D,M-M2b,125,Single-ply,116.6,,,205,205,1956
1,M,Fernando Durand,D,MR-M2a,75,Raw,74.1,,,192.5,192.5,1963
1,F,Eastin Kimberly,D,F-M1a,90+,Single-ply,110.6,,,177.5,177.5,1970
1,F,Laura Edwards,D,FR-M1b,75,Raw,70.9,,,135,135,1966
1,F,Fanny Galanis,D,FR-M4a,75,Raw,73.8,,,67.5,67.5,1943
1,M,Logan Morrison,SBD,MR-T1,82.5,Raw,79.1,102.5,67.5,112.5,282.5,1999
1,M,Nick Loiacano,SBD,MR-T2,125,Raw,122.5,185,75,162.5,422.5,1996
1,M,Robert A. Valentin Jr,B,MR-T3,60,Raw,59.4,,97.5,,97.5,
1,M,Ben Winder,SBD,MR-T3,67.5,Raw,67,142.5,125,195,462.5,1995
1,M,Gabriel Vega-Lara,SD,MR-T3,90,Raw,89.1,142.5,,155,297.5,
1,M,John Chesney,SBD,MR-T3,100,Raw,92.5,160,110,220,490,1995
1,M,Dylan Hayes,SBD,M-T3,75,Single-ply,71.5,130,117.5,170,417.5,1995
1,M,Andre Kruk,SB,M-T3,82.5,Single-ply,82.1,185,115,,300,1994
1,M,Michael Lake,SBD,M-Jr,75,Single-ply,72.3,175,125,187.5,487.5,1992
1,M,Spencer Grubb,SBD,M-Jr,82.5,Single-ply,80.7,200,147.5,210,557.5,1994
1,M,Ryan Hayes,SD,M-Jr,110,Single-ply,106.8,197.5,,227.5,425,1993
1,M,Diego Purnomo,SBD,MR-Jr,75,Raw,74.1,145,82.5,160,387.5,1991
1,M,Huntington Hayes,SBD,MR-Jr,90,Raw,89.1,187.5,137.5,235,560,1992
1,M,Matthew Karbowski,SBD,MR-Jr,100,Raw,96.5,212.5,157.5,240,610,1991
2,M,Sam Grossman,SBD,MR-Jr,100,Raw,97.6,160,150,220,530,1998
3,M,Hunter Laud,SBD,MR-Jr,100,Raw,90.6,150,115,207.5,472.5,1993
1,M,John P. Utz,SD,M-O,100,Single-ply,100,250,,272.5,522.5,
1,M,Jamie Guidry,SBD,MR-O,82.5,Raw,78.8,150,117.5,187.5,455,1987
1,M,William Smith,SBD,MR-O,90,Raw,88.3,145,120,235,500,1990
1,M,Matt Otero,SBD,MR-O,100,Raw,98.9,227.5,160,262.5,650,
2,M,Michael Armour,SBD,MR-O,100,Raw,99,197.5,170,247.5,615,1989
3,M,Preston Love,SBD,MR-O,100,Raw,98,190,145,255,590,1984
4,M,Ryan Doughan,SBD,MR-O,100,Raw,92.2,170,132.5,205,507.5,1989
1,M,Charles Mallette IV,SBD,MR-O,110,Raw,103.6,215,145,235,595,1986
2,M,Jennings Hester,SBD,MR-O,110,Raw,107.8,187.5,147.5,242.5,577.5,1988
3,M,Robert Straka,SBD,MR-O,110,Raw,107,172.5,122.5,222.5,517.5,1989
1,M,Jorge Alvarez,SBD,MR-O,125,Raw,118.7,222.5,145,270,637.5,1984
1,M,Kenneth Morris,SBD,MR-O,125+,Raw,129.7,280,202.5,300,782.5,1985
1,M,Jon Kennedy,SBD,M-M1a,125+,Single-ply,131,185,187.5,227.5,600,1973
2,M,Jon Kennedy,BD,M-M1a,125+,Single-ply,131,,187.5,227.5,415,1973
1,M,Brian Morrison,SBD,MR-M1a,75,Raw,72.7,155,127.5,195,477.5,1973
1,M,Michael Ricker,SBD,M-M1b,125+,Single-ply,140.9,100,200,230,530,1965
1,M,Anthony Milillo,SBD,MR-M1b,82.5,Raw,80.8,150,100,170,420,1965
1,M,Ray Penland,SBD,M-M3a,90,Single-ply,89.7,200,65,165,430,1952
1,M,Bill Hennessey,SBD,MR-M2a,75,Raw,70.7,97.5,85,122.5,305,
1,M,Michael Bitting,SBD,MR-M2b,110,Raw,108.6,175,130,195,500,1956
1,M,Michael Paugh,SBD,MR-M4a,82.5,Raw,77.1,97.5,52.5,157.5,307.5,1939
1,F,Megan Kupser,SBD,FR-T3,56,Raw,54.9,80,40,95,215,1995
1,F,Jessica Cockreham,SBD,FR-O,52,Raw,50.8,117.5,72.5,137.5,327.5,1981
1,F,Jennifer Cox,SBD,FR-O,56,Raw,53.6,110,62.5,115,287.5,1985
1,F,Lindsay Wright,SBD,FR-O,60,Raw,59.4,105,60,125,290,1978
1,F,Kelsea Marie Koenreich,SBD,FR-O,67.5,Raw,64.1,112.5,57.5,155,325,
2,F,Ayse Jones,SBD,FR-O,67.5,Raw,65,87.5,60,137.5,285,1983
1,F,Julie Wilson,SBD,FR-O,75,Raw,74.4,122.5,67.5,140,330,1976
2,F,Julia Hanley,SBD,FR-O,75,Raw,70.6,102.5,47.5,127.5,277.5,1981
1,F,Chrissy Valcourt,SBD,FR-O,82.5,Raw,81.6,97.5,57.5,145,300,1985
1,F,Jennifer Cline,SBD,FR-O,90+,Raw,111.3,85,70,137.5,292.5,1979
1,F,Eastin Kimberly,BD,F-M1a,90+,Single-ply,110.6,,122.5,177.5,300,1970
1,F,Michelle Sothen,SBD,FR-M1a,67.5,Raw,62.9,102.5,67.5,130,300,1970
1,F,Ivelese Santana,SBD,FR-M1a,75,Raw,70.1,85,47.5,130,262.5,
1,F,Dana Milillo,SBD,FR-M1a,82.5,Raw,75.9,72.5,55,115,242.5,1971
1,F,Jennifer Gordon,SBD,FR-M1a,90,Raw,82.7,107.5,57.5,112.5,277.5,1973
1,F,Laura Edwards,SBD,FR-M1b,75,Raw,70.9,102.5,72.5,135,310,1966
1,F,Marietta Roberts,SBD,FR-M3b,67.5,Raw,64.1,40,35,70,145,1944
1,M,Anthony Toussaint,BD,MR-T2,60,Raw,56.7,,62.5,120,182.5,1997
1,M,Wens Laguerre,BD,MR-T2,75,Raw,74.5,,62.5,120,182.5,1997
1,M,Brandon Barnett,BD,MR-T2,82.5,Raw,80.8,,105,170,275,1996
1,M,Marlon Bhoorasingh,B,M-O,125,Single-ply,122.5,,225,,225,1983
1,M,Scott Miliken,BD,MR-O,75,Raw,74.6,,107.5,175,282.5,
1,M,James Wilson,BD,MR-O,125,Raw,117.1,,152.5,235,387.5,1988
1,M,James Dundon,BD,MR-M1b,110,Raw,108.8,,160,227.5,387.5,1965
1,M,Tim Deline,BD,MR-M2b,75,Raw,73.5,,92.5,115,207.5,1957
2,M,Tim Deline,BD,MR-M2b,75,Raw,73.5,,92.5,115,207.5,1957
1,F,Eastin Kimberly,BD,F-M1a,90+,Single-ply,110.6,,122.5,177.5,300,1970
1,F,Laura Edwards,BD,FR-M1b,75,Raw,70.9,,72.5,135,207.5,1966
