Place,Name,Sex,Age,Equipment,Division,BodyweightKg,WeightClassKg,Squat1Kg,Squat2Kg,Squat3Kg,Best3SquatKg,Bench1Kg,Bench2Kg,Bench3Kg,Best3BenchKg,Deadlift1Kg,Deadlift2Kg,Deadlift3Kg,Best3DeadliftKg,TotalKg,Event
1,Dana McFarlane,F,53,Raw,Open,55.35,56,85,90,95,95,57.5,60,-65,60,125,137.5,142.5,142.5,297.5,SBD
1,Ashlea Adams,F,27,Raw,Open,66.75,67.5,100,110,-117.5,110,65,72.5,77.5,77.5,142.5,155,165,165,352.5,SBD
2,Caitlin Webster,F,30,Raw,Open,66.3,67.5,95,105,115,115,55,60,65,65,110,120,-122.5,120,300,SBD
3,Rina Maryuma,F,31,Raw,Open,62.65,67.5,77.5,-85,85,85,40,42.5,45,45,95,102.5,-117.5,102.5,232.5,SBD
1,Katelyn Hosang,F,25,Raw,Open,72.35,75,150,162.5,170,170,62.5,70,75,75,162.5,182.5,187.5,187.5,432.5,SBD
2,Sarah Smith,F,26,Raw,Open,72.5,75,130,140,142.5,142.5,85,95,97.5,97.5,155,170,175,175,415,SBD
3,Josie Powell,F,19,Raw,Open,73.95,75,117.5,127.5,135,135,65,-70,70,70,150,-162.5,167.5,167.5,372.5,SBD
4,Kathleen Lopez,F,25,Raw,Open,70.7,75,130,140,147.5,147.5,65,70,72.5,72.5,127.5,-132.5,-132.5,127.5,347.5,SBD
5,Kelsie Goodrich,F,25,Raw,Open,70.15,75,115,127.5,-135,127.5,55,62.5,67.5,67.5,122.5,137.5,-147.5,137.5,332.5,SBD
NS,Arthur Borba,M,,Raw,Open,,,,,,,,,,,,,,,,SBD
NS,Chris Henger,M,,Raw,Open,,,,,,,,,,,,,,,,SBD
1,Travis Weare,M,37,Raw,Open,74,75,205,215,227.5,227.5,127.5,-135,-140,127.5,232.5,245,257.5,257.5,612.5,SBD
2,Matt Haney,M,25,Raw,Open,74.9,75,172.5,182.5,-192.5,182.5,127.5,137.5,-142.5,137.5,192.5,210,227.5,227.5,547.5,SBD
1,Quentin Ballentine,M,21,Raw,Open,76,82.5,197.5,215,-225,215,-125,125,-135,125,220,235,242.5,242.5,582.5,SBD
2,Jimmy Phan,M,17,Raw,Open,80.8,82.5,187.5,200,-210,200,112.5,-122.5,127.5,127.5,-237.5,250,-260,250,577.5,SBD
3,Kyle Wilson,M,24,Raw,Open,81.2,82.5,192.5,207.5,217.5,217.5,117.5,125,130,130,197.5,205,225,225,572.5,SBD
1,Kirk Gibson,M,26,Raw,Open,89.1,90,267.5,285,295,295,177.5,185,-187.5,185,307.5,327.5,-337.5,327.5,807.5,SBD
2,Rafael Perez,M,26,Raw,Open,89.8,90,212.5,225,237.5,237.5,152.5,162.5,-170,162.5,260,275,287.5,287.5,687.5,SBD
3,Hernestor Torres,M,28,Raw,Open,86.2,90,212.5,220,227.5,227.5,160,167.5,-172.5,167.5,200,-215,215,215,610,SBD
4,Carlos Mata,M,17,Raw,Open,89.85,90,182.5,192.5,,192.5,112.5,120,-125,120,252.5,-265,272.5,272.5,585,SBD
1,Javier Acle,M,26,Raw,Open,98.1,100,245,260,275,275,165,175,-182.5,175,275,300,-317.5,300,750,SBD
2,William Wood,M,34,Raw,Open,98.1,100,222.5,230,-242.5,230,-177.5,177.5,-185,177.5,222.5,235,-245,235,642.5,SBD
3,Louis Nutter,M,30,Raw,Open,97.1,100,160,172.5,187.5,187.5,135,142.5,155,155,210,222.5,-237.5,222.5,565,SBD
1,Shane Hunt,M,22,Raw,Open,103.75,110,-250,260,267.5,267.5,150,-155,,150,-300,300,-332.5,300,717.5,SBD
2,Zachry Miller,M,28,Raw,Open,108.4,110,225,247.5,262.5,262.5,132.5,145,155,155,250,265,277.5,277.5,695,SBD
3,Gregory Leone,M,26,Raw,Open,108.6,110,210,220,227.5,227.5,110,117.5,125,125,207.5,220,230,230,582.5,SBD
1,Jason Stettin,M,32,Raw,Open,117,125,-242.5,250,262.5,262.5,182.5,185,-197.5,185,285,-305,-305,285,732.5,SBD
1,Mitchell Saunders,M,22,Raw,Open,133.4,140,290,310,325,325,185,192.5,197.5,197.5,270,287.5,302.5,302.5,825,SBD
1,Xavier Chapoteau,M,18,Wraps,Open,80.3,82.5,250,265,280,280,150,-160,-165,150,-295,307.5,317.5,317.5,747.5,SBD
2,Armando Perez,M,27,Wraps,Open,81.65,82.5,215,232.5,240,240,155,160,-162.5,160,260,280,290,290,690,SBD
3,Ryan O'Neill,M,29,Wraps,Open,81.7,82.5,215,230,237.5,237.5,140,147.5,152.5,152.5,257.5,277.5,-282.5,277.5,667.5,SBD
1,Joey Porcelli,M,24,Wraps,Open,89.3,90,280,295,312.5,312.5,155,165,172.5,172.5,285,300,320,320,805,SBD
2,Eddie Ryckman,M,27,Wraps,Open,88.2,90,295,315,322.5,322.5,157.5,165,172.5,172.5,272.5,287.5,-295,287.5,782.5,SBD
DQ,Channing Doyle,M,31,Wraps,Open,89.1,90,-317.5,-340,-345,,-182.5,,,,-295,,,,,SBD
1,Julio Serrano,M,28,Wraps,Open,98.9,100,310,327.5,-342.5,327.5,172.5,177.5,182.5,182.5,332.5,350,-360,350,860,SBD
DQ,Sean Lorenz,M,32,Wraps,Open,98.7,100,230,235,250,250,150,155,-157.5,155,-300,-300,,,,SBD
1,Jordan Faria,M,25,Wraps,Open,107.6,110,300,320,340,340,215,227.5,235,235,295,315,-332.5,315,890,SBD
1,Joseph Coursey,M,27,Wraps,Open,124.7,125,350,370,375,375,205,215,220,220,330,342.5,-347.5,342.5,937.5,SBD
2,Felix Alvarez,M,19,Wraps,Open,123.6,125,280,292.5,305,305,175,185,192.5,192.5,280,292.5,300,300,797.5,SBD
3,Robert Zaila,M,25,Wraps,Open,111.4,125,165,182,192.5,192.5,142.5,150,-155,150,182.5,195,,195,537.5,SBD
1,Marcus Leoni,M,27,Wraps,Open,131.1,140,330,345,-355,345,210,220,-225,220,345,365,-375,365,930,SBD
1,Avi Eisenstadt,M,26,Raw,Open,75,75,,,,,140,145,-147.5,145,,,,,145,B
1,Kye Brown,M,34,Raw,Open,89.25,90,,,,,205,-222.5,-222.5,205,,,,,205,B
1,Jeremy Hoornstra,M,38,Raw,Open,109.85,110,,,,,282.5,-297.5,-297.5,282.5,,,,,282.5,B
1,Michael DeRouen,M,25,Raw,Open,88.1,90,,,,,,,,,310,320,330,330,330,D
