Place,Sex,Name,CyrillicName,BodyweightKg,Squat1Kg,Squat2Kg,Squat3Kg,Best3SquatKg,Squat4Kg,Bench1Kg,Bench2Kg,Bench3Kg,Best3BenchKg,Bench4Kg,Deadlift1Kg,Deadlift2Kg,Deadlift3Kg,Best3DeadliftKg,Deadlift4Kg,TotalKg,WeightClassKg,Event,Equipment,Tested,Division,Age,BirthDate
1,F,Elvira Knyazeva,Эльвира Князева,51.4,70,75,-77.5,75,,47.5,50,-52.5,50,,85,90,-100,90,,215,52,SBD,Wraps,Yes,Open,29,1989-07-12
DQ,F,Ekaterina Machtakova,Екатерина Мачтакова,58.6,-70,-77.5,-77.5,,,,,,,,,,,,,,60,SBD,Wraps,Yes,Open,24,1994-01-27
DQ,F,Alina Pavlova,Алина Павлова,61.4,65,-70,-70,65,,-40,-40,-40,,,,,,,,,67.5,SBD,Wraps,Yes,Open,28,1990-03-17
1,M,Ilfat Gataulliin,Ильфат Гатауллиин,98.5,190,-200,-200,190,,-130,-130,130,130,,240,-250,-250,240,,560,100,SBD,Wraps,Yes,Open,30,1988-05-27
1,M,Kamil Shagiev,Камиль Шагиев,75,80,90,95,95,,-55,55,60,60,,80,90,100,100,,255,75,SBD,Wraps,No,Pro Teen 15-19,15,2003-08-22
1,M,Rustem Gataullin,Рустем Гатауллин,76.7,100,110,-120,110,,70,75,-82.5,75,,120,130,150,150,,335,82.5,SBD,Wraps,No,Pro Teen 15-19,15,2003-04-01
1,M,Kirill Motrenko,Кирилл Мотренко,106.3,150,165,175,175,,110,125,-132.5,125,,200,220,230,230,,530,110,SBD,Wraps,No,Pro Open,28,1990-06-19
DQ,F,Kamilla Sadykova,Камилла Садыкова,61.3,-110,-110,-110,,,,,,,,,,,,,,67.5,S,Wraps,Yes,Juniors 20-23,21,1997-04-14
1,F,Alisa Zaynulina,Алиса Зайнулина,50.5,,,,,,-32.5,32.5,35,35,,,,,,,35,52,B,Raw,Yes,Juniors 20-23,20,1997-11-10
1,M,Vladislav Konyshev,Владислав Конышев,74,,,,,,110,-117.5,-117.5,110,,,,,,,110,75,B,Raw,Yes,Teen 15-19,19,1999-05-07
1,M,Dmitriy Alekseev,Дмитрий Алексеев,74.9,,,,,,-120,-120,120,120,,,,,,,120,75,B,Raw,Yes,Open,32,1986-04-21
2,M,Ilnur Gilmanov,Ильнур Гильманов,73.9,,,,,,110,115,117.5,117.5,,,,,,,117.5,75,B,Raw,Yes,Open,26,1992-04-29
DQ,M,Artyom Koleznev,Артём Колезнев,82,,,,,,-145,-145,-145,,,,,,,,,82.5,B,Raw,Yes,Juniors 20-23,22,1996-10-22
DQ,M,Artyom Koleznev,Артём Колезнев,82,,,,,,-145,-145,-145,,,,,,,,,82.5,B,Raw,Yes,Open,22,1996-10-22
1,M,Anar Apaev,Анар Апаев,88.7,,,,,,152.5,155,-160,155,,,,,,,155,90,B,Raw,Yes,Open,26,1992-04-29
2,M,Rustem Ataullov,Рустем Атауллов,87.6,,,,,,127.5,132.5,-135,132.5,,,,,,,132.5,90,B,Raw,Yes,Open,36,1982-02-13
DQ,M,Ayrat Khayrutdinov,Айрат Хайрутдинов,88.7,,,,,,-145,-145,-145,,,,,,,,,90,B,Raw,Yes,Open,37,1981-02-20
1,M,Ramil Suleymanov,Рамиль Сулейманов,94.5,,,,,,130,140,145,145,,,,,,,145,100,B,Raw,Yes,Open,37,1981-03-04
2,M,Aleksey Ushakov,Алексей Ушаков,97.8,,,,,,80,90,100,100,,,,,,,100,100,B,Raw,Yes,Open,37,1981-10-05
1,M,Dmitriy Bikteev,Дмитрий Биктеев,98.6,,,,,,140,-162.5,-162.5,140,,,,,,,140,100,B,Raw,Yes,Masters 50-54,50,1968-02-26
1,F,Alevtina Ivanova,Алевтина Иванова,66.3,,,,,,92.5,102.5,107.5,107.5,,,,,,,107.5,67.5,B,Raw,No,Pro Open,47,1971-10-03
1,M,Dinislam Gatiyatullin,Динислам Гатиятуллин,51,,,,,,30,32.5,35,35,,,,,,,35,52,B,Raw,No,Pro Teen 13-15,14,2004-05-11
1,M,Kirill Kryukov,Кирилл Крюков,64.6,,,,,,60,67.5,-72.5,67.5,,,,,,,67.5,67.5,B,Raw,No,Pro Teen 13-15,15,2003-04-25
2,M,Iskander Galimov,Искандер Галимов,64.6,,,,,,42.5,45,50,50,,,,,,,50,67.5,B,Raw,No,Pro Teen 13-15,14,2004-06-15
1,M,Dmitriy Zareev,Дмитрий Зареев,70.9,,,,,,-100,100,110,110,,,,,,,110,75,B,Raw,No,Pro Open,37,1981-05-30
1,M,Albert Moor,Альберт Моор,75,,,,,,70,72.5,75,75,,,,,,,75,75,B,Raw,No,Pro Masters 65-69,68,1950-07-03
1,M,Ferdinant Gazizov,Фердинант Газизов,80,,,,,,140,150,155,155,,,,,,,155,82.5,B,Raw,No,Pro Open,44,1974-06-11
DQ,M,Maksim Kuznetsov,Максим Кузнецов,80.1,,,,,,-145,-145,-145,,,,,,,,,82.5,B,Raw,No,Pro Open,24,1994-10-10
1,M,Igor Kislyakov,Игорь Кисляков,89.2,,,,,,160,170,180,180,,,,,,,180,90,B,Raw,No,Pro Open,33,1985-08-30
2,M,Evgeniy Vashurin,Евгений Вашурин,87.9,,,,,,155,165,-170,165,,,,,,,165,90,B,Raw,No,Pro Open,38,1980-03-03
1,M,Petr Koleznev,Петр Колезнев,90,,,,,,132.5,-135,,132.5,,,,,,,132.5,90,B,Raw,No,Pro Masters 55-59,57,1961-01-16
1,M,Petr Isaev,Петр Исаев,89,,,,,,100,112.5,117.5,117.5,,,,,,,117.5,90,B,Raw,No,Pro Masters 65-69,68,1950-01-01
1,M,Aleksandr Lamzin,Александр Ламзин,98.9,,,,,,175,185,190,190,,,,,,,190,100,B,Raw,No,Pro Open,28,1990-07-18
2,M,Vitaliy Lutsuk,Виталий Луцук,93.7,,,,,,160,167.5,175,175,,,,,,,175,100,B,Raw,No,Pro Open,27,1991-03-20
3,M,Sergey Isaev,Сергей Исаев,93.5,,,,,,-160,160,165,165,,,,,,,165,100,B,Raw,No,Pro Open,32,1986-10-06
4,M,Evgeniy Belov,Евгений Белов,99.3,,,,,,155,-160,-160,155,,,,,,,155,100,B,Raw,No,Pro Open,33,1985-07-13
1,M,Artem Loginov,Артем Логинов,109,,,,,,187.5,192.5,200,200,,,,,,,200,110,B,Raw,No,Pro Open,24,1994-05-07
2,M,Ildar Khakimov,Ильдар Хакимов,104,,,,,,125,-135,140,140,,,,,,,140,110,B,Raw,No,Pro Open,35,1982-11-27
1,M,Andrey Osetrin,Андрей Осетрин,101.2,,,,,,105,-110,-110,105,,,,,,,105,110,B,Raw,No,Pro Masters 45-49,45,1972-12-27
1,M,Rinat Kabirov,Ринат Кабиров,122.4,,,,,,190,205,210,210,,,,,,,210,125,B,Raw,No,Pro Open,38,1979-11-30
1,M,Maksim Yakovlev,Максим Яковлев,84.5,,,,,,170,-180,180,180,,,,,,,180,90,B,Single-ply,No,Pro Open,36,1982-06-17
1,F,Ekaterina Machtakova,Екатерина Мачтакова,58.6,,,,,,,,,,,70,75,82.5,82.5,,82.5,60,D,Raw,Yes,Open,24,1994-01-27
1,F,Viktoriya Knyazeva,Виктория Князева,62.7,,,,,,,,,,,-90,95,102.5,102.5,,102.5,67.5,D,Raw,Yes,Open,35,1983-07-12
1,M,Vladislav Konyshev,Владислав Конышев,74,,,,,,,,,,,175,182.5,187.5,187.5,,187.5,75,D,Raw,Yes,Teen 15-19,19,1999-05-07
1,M,Ilgiz Galiev,Ильгиз Галиев,81.9,,,,,,,,,,,190,205,-220,205,,205,82.5,D,Raw,Yes,Masters 50-54,53,1965-04-12
1,M,Ilfat Gataulliin,Ильфат Гатауллиин,98.1,,,,,,,,,,,240,,,240,,240,100,D,Raw,Yes,Open,20,1998-05-27
1,M,Egor Yarko,Егор Ярко,102.8,,,,,,,,,,,-190,190,215,215,,215,110,D,Raw,Yes,Juniors 20-23,23,1995-10-19
1,M,Bulat Shayakhmetov,Булат Шаяхметов,80.9,,,,,,,,,,,100,115,125,125,,125,82.5,D,Raw,No,Pro Open,38,1979-11-16
1,M,Aleksey Ushakov,Алексей Ушаков,97.8,,,,,,,,,,,100,120,145,145,,145,100,D,Raw,No,Pro Open,37,1981-10-05
1,M,Pavel Khazikov,Павел Хазиков,113.8,,,,,,,,,,,270,285,-300,285,,285,125,D,Raw,No,Pro Open,29,1989-01-31
1,M,Aleksandr Muratkin,Александр Мураткин,108.3,,,,,,,,,,,325,340,-347.5,340,,340,110,D,Single-ply,No,Pro Open,33,1985-08-29
