Name,Sex,Division,BodyweightKg,WeightClassKg,Squat1Kg,Squat2Kg,Squat3Kg,Best3SquatKg,Bench1Kg,Bench2Kg,Bench3Kg,Best3BenchKg,Deadlift1Kg,Deadlift2Kg,Deadlift3Kg,Best3DeadliftKg,TotalKg,Equipment,Event,Place
David Brown,M,M-C-M3,57,59,82.5,-87.5,87.5,87.5,67.5,70,-72.5,70,122.5,127.5,130,130,287.5,Raw,SBD,1
Greig Murray,M,M-C-M1,65.1,66,145,155,-165,155,110,-120,-120,110,200,220,230,230,495,Raw,SBD,1
Roger Hamilton-Smith,M,M-C-M1,64.5,66,152.5,165,-170,165,100,110,-112.5,110,197.5,210,217.5,217.5,492.5,Raw,SBD,2
Henry Chay,M,M-C-M2,64.5,66,140,150,-152.5,150,80,82.5,-85,82.5,185,197.5,200,200,432.5,Raw,SBD,1
William Taylor,M,M-C-M3,65.3,66,105,115,120,120,80,85,-90,85,130,140,-150,140,345,Raw,SBD,1
Sean Cole,M,M-C-M1,72.6,74,170,180,190,190,115,-120,,115,225,235,245,245,550,Raw,SBD,1
Allen Ottolangui,M,M-C-M2,73.8,74,160,172.5,,172.5,90,95,-100,95,180,-192.5,,180,447.5,Raw,SBD,1
Steve Walker,M,M-C-M3,73,74,-170,170,180.5,180.5,120.5,-130,-130,120.5,210,220,225,225,526,Raw,SBD,1
Hari Singh Cheema,M,M-C-M3,72.8,74,-160,160,-175,160,90,97.5,102.5,102.5,180,190,200,200,462.5,Raw,SBD,2
Desmond Scott,M,M-C-M4,71.5,74,75,80,85,85,55,60,65,65,120,125,130,130,280,Raw,SBD,1
David O'Brien,M,M-C-M1,82.4,83,195,205,-210,205,130,135,-137.5,135,220,230,-235,230,570,Raw,SBD,1
Jasvinder Singh Cheema,M,M-C-M1,81.5,83,165,172.5,180,180,140,147.5,-152.5,147.5,185,200,-202.5,200,527.5,Raw,SBD,2
George Millar,M,M-C-M1,82.5,83,160,170,-175,170,105,110,-112.5,110,215,230,242.5,242.5,522.5,Raw,SBD,3
Jim Wands,M,M-C-M1,82.1,83,140,155,-162.5,155,115,120,122.5,122.5,185,197.5,-202.5,197.5,475,Raw,SBD,4
David Clifford,M,M-C-M2,81.2,83,-190,190,197.5,197.5,120,122.5,-125,122.5,230,240,250,250,570,Raw,SBD,1
Alan Joseph,M,M-C-M2,81.8,83,180,190,197.5,197.5,115,120,122.5,122.5,220,232.5,-252.5,232.5,552.5,Raw,SBD,2
Ernie Parks,M,M-C-M4,81.4,83,150,160,170,170,85,90,92.5,92.5,215,227.5,,227.5,490,Raw,SBD,1
Neil Watson,M,M-C-M4,80.7,83,70,90,-100,90,55,65,-67.5,65,135,-160,-160,135,290,Raw,SBD,2
Iain McAllister,M,M-C-M1,90.7,93,165,-172.5,-172.5,165,-135,-135,142.5,142.5,220,232.5,-240,232.5,540,Raw,SBD,1
Greg Stewart,M,M-C-M1,89.1,93,150,157.5,162.5,162.5,110,117.5,120,120,175,185,192.5,192.5,475,Raw,SBD,2
Robert Rodney,M,M-C-M2,90.4,93,225,235,240,240,147.5,155,-160.5,155,270,-295,-300.5,270,665,Raw,SBD,1
Glyn Belsher,M,M-C-M2,91.9,93,140,150,152.5,152.5,90,97.5,-100,97.5,145,152.5,157.5,157.5,407.5,Raw,SBD,2
Clive Lingard,M,M-C-M4,90.9,93,-95,-105,105,105,95,-100,-100,95,135,167.5,-175,167.5,367.5,Raw,SBD,1
Stuart Alexander,M,M-C-M1,100.8,105,220,230,237.5,237.5,140,-147.5,-147.5,140,235,245,250,250,627.5,Raw,SBD,1
Tim Wheeler,M,M-C-M1,103.2,105,215,225,232.5,232.5,112.5,117.5,120,120,235,252.5,-277.5,252.5,605,Raw,SBD,2
Andy Philp,M,M-C-M1,112.3,120,230,240,-245,240,155,160,165,165,280,300,-315,300,705,Raw,SBD,1
Nathan Turner,M,M-C-M1,116.9,120,230,242.5,250,250,155,162.5,-170,162.5,230,-240,,230,642.5,Raw,SBD,2
Chris Godfrey,M,M-C-M1,111.3,120,192.5,200,205,205,122.5,125,127.5,127.5,217.5,227.5,235,235,567.5,Raw,SBD,3
Colin Wright #1,M,M-C-M2,117.3,120,275,287.5,-292.5,287.5,162.5,-167.5,170,170,300,315,320,320,777.5,Raw,SBD,1
David Charnock,M,M-C-M2,118.8,120,210,225,-240,225,130,137.5,142.5,142.5,220,245,267.5,267.5,635,Raw,SBD,2
Dave Turner,M,M-C-M3,118,120,-180,-180,-180,,100,105,110,110,180,190,200,200,,Raw,SBD,DQ
James Brincat-Smith,M,M-C-M1,188.7,120+,250,-270,-270,250,130,-137.5,-137.5,130,235,252.5,257.5,257.5,637.5,Raw,SBD,1
Eugene Currie,M,M-C-M1,126.6,120+,170,190,202.5,202.5,115,125,130,130,190,210,-230,210,542.5,Raw,SBD,2
Andrew Rodney,M,M-C-M2,121.4,120+,230,-250,260,260,150,160,170,170,262.5,,,262.5,692.5,Raw,SBD,1
June Stamp,F,F-C-M1,46.6,47,65,70,75,75,35,37.5,-40,37.5,82.5,-92.5,-92.5,82.5,195,Raw,SBD,1
Imelda Flanagan,F,F-C-M2,42,47,67.5,70,72.5,72.5,37.5,40,-42.5,40,105,110,-115,110,222.5,Raw,SBD,1
Diane Hexhall,F,F-C-M2,45.9,47,45,47.5,50,50,30,32.5,35,35,77.5,82.5,85,85,170,Raw,SBD,2
Sofia Rufus,F,F-C-M1,51.7,52,105,-110.5,-110.5,105,47.5,50,-52.5,50,110,120,122.5,122.5,277.5,Raw,SBD,1
Catriona Duncan,F,F-C-M1,50.6,52,90,95,-100,95,55,57.5,-60,57.5,112.5,117.5,122.5,122.5,275,Raw,SBD,2
Suzanne Richards,F,F-C-M1,51.1,52,77.5,80,82.5,82.5,52.5,-55,-55,52.5,120,-122.5,-122.5,120,255,Raw,SBD,3
Liz Hill,F,F-C-M1,51.4,52,90,-95,-95,90,47.5,-52.5,-52.5,47.5,100,-105,-105,100,237.5,Raw,SBD,4
Rachel Smith #1,F,F-C-M1,52,52,75,80,-82.5,80,37.5,-40,-40,37.5,105,110,-115,110,227.5,Raw,SBD,5
Jenny Hunter,F,F-C-M2,51.4,52,60,70,75,75,62.5,65,-67.5,65,100,112.5,120,120,260,Raw,SBD,1
Linda Kaminski,F,F-C-M3,49.1,52,90,95,100,100,37.5,40,42.5,42.5,110,115,120,120,262.5,Raw,SBD,1
Jane Girdlestone,F,F-C-M1,53.5,57,117.5,122.5,125,125,65,70,,70,130,140,-145,140,335,Raw,SBD,1
Helen Hughes #1,F,F-C-M1,54.5,57,110,-115,-115,110,70,75,-80,75,130,140,-145,140,325,Raw,SBD,2
Anneli Rita-Stewart,F,F-C-M1,56.3,57,100,107.5,-110,107.5,50,52.5,-55,52.5,120,127.5,132.5,132.5,292.5,Raw,SBD,3
Karen Burns,F,F-C-M1,55.7,57,75,80,82.5,82.5,40,42.5,47.5,47.5,97.5,107.5,115,115,245,Raw,SBD,4
Michelle Franklin,F,F-C-M2,54.6,57,-75,75,82.5,82.5,47.5,50,52.5,52.5,110,120,-125,120,255,Raw,SBD,1
Sarah Butcher,F,F-C-M3,56,57,75,80,85,85,42.5,-45,45,45,95,102.5,-107.5,102.5,232.5,Raw,SBD,1
Beverley Rodgers,F,F-C-M1,62.9,63,107.5,-117.5,117.5,117.5,77.5,82.5,-85.5,82.5,125,132.5,140,140,340,Raw,SBD,1
Pelin Baykal,F,F-C-M1,60.7,63,107.5,115,117.5,117.5,57.5,62.5,-65,62.5,137.5,147.5,-160,147.5,327.5,Raw,SBD,2
Emma Stott,F,F-C-M1,60.7,63,100,107.5,-110,107.5,60,65,-67.5,65,-137.5,137.5,145,145,317.5,Raw,SBD,3
Donna Bradbury,F,F-C-M1,61.6,63,110,115,117.5,117.5,60,-65,-65,60,130,135,-137.5,135,312.5,Raw,SBD,4
Jackie Day,F,F-C-M1,61.3,63,90,95,100,100,47.5,-50,-50,47.5,105,112.5,117.5,117.5,265,Raw,SBD,5
Sam Shillitto,F,F-C-M1,60.9,63,65,70,75,75,40,42.5,45,45,90,95,102.5,102.5,222.5,Raw,SBD,6
Lynda Banks,F,F-C-M2,62.8,63,105,110,115,115,55,60,-62.5,60,127.5,135,145,145,320,Raw,SBD,1
Alison Jones,F,F-C-M2,62.6,63,70,75,80,80,50,52.5,55,55,105,115,120,120,255,Raw,SBD,2
Samantha Devlin,F,F-C-M2,57.9,63,90,95,-100,95,50,-55,55,55,100,110,-120,110,260,Raw,SBD,G
Louise Richardson,F,F-C-M1,70.1,72,152.5,160,-167.5,160,72.5,77.5,80,80,170,180,-185,180,420,Raw,SBD,1
Eno Majomi,F,F-C-M1,67.5,72,130,-145,145,145,70,75,80,80,150,165,-175,165,390,Raw,SBD,2
Melanie Stewart,F,F-C-M1,66.1,72,-110,125,-132.5,125,55,65,-72.5,65,135,155,165,165,355,Raw,SBD,3
Lucie Šuková,F,F-C-M1,66.9,72,117.5,125,130,130,67.5,-72.5,-72.5,67.5,142.5,147.5,152.5,152.5,350,Raw,SBD,4
Siona Garden,F,F-C-M1,69.7,72,120,125,-127.5,125,60,65,-67.5,65,145,150,-155,150,340,Raw,SBD,5
Wendie Kirkland,F,F-C-M1,70.3,72,117.5,125,-127.5,125,67.5,72.5,-77.5,72.5,125,132.5,140,140,337.5,Raw,SBD,6
Lisa Liddy,F,F-C-M1,69.1,72,117.5,-122.5,122.5,122.5,67.5,70,72.5,72.5,132.5,137.5,-142.5,137.5,332.5,Raw,SBD,7
Emma Taylor,F,F-C-M1,70.2,72,100,-115,-130,100,57.5,60,65,65,145,155,165,165,330,Raw,SBD,8
Judith Davison,F,F-C-M1,69.3,72,85,95,100,100,45,50,-52.5,50,115,125,130,130,280,Raw,SBD,9
Laura Porter,F,F-C-M1,70.5,72,92.5,-97.5,97.5,97.5,55,57.5,-60,57.5,105,115,122.5,122.5,277.5,Raw,SBD,10
Rebecca Williams,F,F-C-M1,70.9,72,92.5,97.5,-100,97.5,57.5,62.5,65,65,105,-117.5,-117.5,105,267.5,Raw,SBD,11
Nicole Mcarthur,F,F-C-M1,68.9,72,90,-95,95,95,47.5,-50,,47.5,112.5,115,-117.5,115,257.5,Raw,SBD,12
Angela Houldershaw,F,F-C-M1,70.7,72,75,-82.5,82.5,82.5,45,47.5,50,50,110,120,125,125,257.5,Raw,SBD,13
Carrie Wilks,F,F-C-M1,71.7,72,-80,-80,80,80,42.5,45,50,50,110,115,122.5,122.5,252.5,Raw,SBD,14
Julie Rose,F,F-C-M1,70.9,72,72.5,77.5,-82.5,77.5,37.5,40,-42.5,40,85,95,-110,95,212.5,Raw,SBD,15
Khrys Kyriacou,F,F-C-M2,69.4,72,122.5,130,135,135,77.5,82.5,87.5,87.5,130,135,,135,357.5,Raw,SBD,1
Gloria Fitzpatrick,F,F-C-M2,70.6,72,105,-107.5,107.5,107.5,50,55,-57.5,55,120,130,140,140,302.5,Raw,SBD,2
Jo Beck,F,F-C-M2,71.1,72,92.5,100,105,105,47.5,50,-52.5,50,130,140,145,145,300,Raw,SBD,3
Allison Gibson,F,F-C-M2,71.1,72,87.5,97.5,-105,97.5,42.5,47.5,-52.5,47.5,125,135,146,146,291,Raw,SBD,4
Diane Stockwell,F,F-C-M2,68,72,95,100,-105,100,57.5,62.5,65,65,110,120,-130,120,285,Raw,SBD,5
Melissa Wall,F,F-C-M2,71.3,72,-75,75,-82.5,75,47.5,-50,,47.5,120,,,120,242.5,Raw,SBD,6
Lucille Rowan,F,F-C-M2,69.5,72,75,77.5,80,80,32.5,35,37.5,37.5,100,107.5,112.5,112.5,230,Raw,SBD,7
Catherine Macaslan,F,F-C-M3,70.2,72,57.5,63,65,65,32.5,35,-37.5,35,90,97.5,101,101,201,Raw,SBD,1
Jackie Blasbery,F,F-C-M2,83.5,84,110,120,125,125,70,77.5,82.5,82.5,150,160,165,165,372.5,Raw,SBD,1
Jenni Sherwood,F,F-C-M1,82.2,84,130,135,140,140,67.5,70,72.5,72.5,170,175,180,180,392.5,Raw,SBD,1
Paola Roccuzzo,F,F-C-M1,82.2,84,135,145,-150,145,70,75,77.5,77.5,155,-165,165,165,387.5,Raw,SBD,2
Kitty Burroughs,F,F-C-M1,83.1,84,132.5,137.5,142.5,142.5,60,-62.5,-62.5,60,157.5,165,-170,165,367.5,Raw,SBD,3
Jacqui Pope,F,F-C-M1,83.6,84,100,110,-117.5,110,67.5,-72.5,72.5,72.5,130,142.5,150,150,332.5,Raw,SBD,4
Suzy Taljard,F,F-C-M1,82.6,84,110,-117.5,-117.5,110,55,60,65,65,140,150,152.5,152.5,327.5,Raw,SBD,5
Nicola Harcus,F,F-C-M1,73.2,84,85,95,-105,95,55,57.5,-60,57.5,120,130,135,135,287.5,Raw,SBD,6
Nicola Hill,F,F-C-M1,82,84,77.5,-82.5,-82.5,77.5,47.5,50,52.5,52.5,107.5,115,120,120,250,Raw,SBD,7
Kelly Phasey,F,F-C-M1,118.6,84+,155,165,-173,165,90,96,-100,96,142.5,152.5,160,160,421,Raw,SBD,1
Sarah Marsden,F,F-C-M1,110.2,84+,162.5,-172.5,-173,162.5,80,87.5,-92.5,87.5,142.5,157.5,-172.5,157.5,407.5,Raw,SBD,2
Kyla Mulholland,F,F-C-M1,93.6,84+,137.5,142.5,147.5,147.5,87.5,-92.5,-92.5,87.5,150,157.5,-162.5,157.5,392.5,Raw,SBD,3
Carol Taylor,F,F-C-M1,99.8,84+,115,-120,120,120,50,52.5,-57.5,52.5,125,130,-135,130,302.5,Raw,SBD,4
Betty Gray,F,F-C-M2,106.6,84+,125,135,142.5,142.5,57.5,62.5,65,65,180,190,-200,190,397.5,Raw,SBD,1
Elizabeth Blair,F,F-C-M2,114.4,84+,115,120,125,125,60,65,70,70,150,160,170,170,365,Raw,SBD,2
Karen Towersey,F,F-C-M2,86.7,84+,100,107.5,-112.5,107.5,57.5,62.5,65,65,125,135,145,145,317.5,Raw,SBD,3
